elective_succession_crisis = {
	potential = {
		has_dlc = "Res Publica"
		has_dlc = "The Cossacks"
		government = elective_monarchy
	}
	
	can_start = {
		has_any_disaster = no
		has_country_flag = elective_crises_start
	}
	can_stop = {
		NOT = { has_country_flag = elective_crises_start }
	}
	progress = {
		modifier = {
			OR = {
				any_owned_province = { sieged_by = pretender_rebels }
				has_spawned_rebels = pretender_rebels
			}
			factor = 10
		}
		modifier = {
			factor = 10
			AND = {
				num_of_rebel_controlled_provinces = 1
				has_spawned_rebels = pretender_rebels
			}
		}
		modifier = {
			factor = 20
			capital_scope = { controlled_by = pretender_rebels }
		}
#		modifier = {
#			factor = 5
#			estate_influence = {
#				estate = estate_magnates
#				influence = 40
#			}
#		}
#		modifier = {
#			factor = 1
#			estate_influence = {
#				estate = estate_magnates
#				influence = 50
#			}
#		}
#		modifier = {
#			factor = 1
#			estate_influence = {
#				estate = estate_magnates
#				influence = 60
#			}
#		}
#		modifier = {
#			factor = 1
#			estate_influence = {
#				estate = estate_magnates
#				influence = 70
#			}
#		}
#		modifier = {
#			factor = 1
#			estate_influence = {
#				estate = estate_magnates
#				influence = 80
#			}
#		}
#		modifier = {
#			factor = 1
#			estate_influence = {
#				estate = estate_magnates
#				influence = 90
#			}
#		}
	}
	can_end = {
		always = no
	}
	modifier = {
		stability_cost_modifier = 0.5
		global_manpower_modifier = -0.25
		land_forcelimit_modifier = -0.20
		land_morale = -0.10
		global_tax_modifier = -0.25
	}
	
	on_start = meiouelective_monarchy.101
	on_end = estate_disasters.2
	
	on_monthly = {}
}

