#Ruler Personalities
#1st personality will be assigned at 15 years of age.
#2nd personality will be assigned after ruling for 10 years.
#3rd personality will be assigned after ruling for 25 years.
#Most personalities are always available (unless contradictory to existing personality), a few are restricted to good rulers.

###############################################
# Good
###############################################


#"Statesman" Traits
just_personality = {
	#personality_events.10
	ruler_allow = {
		allow = {
			NOT = { ruler_has_personality = cruel_personality }
		}
		
		chance = {
			modifier = {
				factor = 1
				adm = 6
			}
		}
	}
	
	heir_allow = {
		allow = {
			NOT = { heir_has_personality = cruel_personality }
		}
		
		chance = {
			modifier = {
				factor = 1
				adm = 6
			}
		}
	}
	
	consort_allow = {
		allow = {
			NOT = { consort_has_personality = cruel_personality }
		}
		
		chance = {
			modifier = {
				factor = 1
				adm = 6
			}
		}
	}
	
	easy_war_chance_multiplier = 0.5
	fair_fights = yes
	
	global_unrest = -2
	stability_cost_modifier = -0.025
	prestige = 0.1
	
	nation_designer_cost = 5
} #1 less bad

righteous_personality = {
	#personality_events.11
	ruler_allow = {
		chance = {
			modifier = {
				factor = 1
				adm = 6
			}
			modifier = {
				factor = 1
				has_new_dynasty = yes
			}
		}
	}
	
	heir_allow = {
		
		chance = {
			modifier = {
				factor = 1
				heir_adm = 6
			}
		}
	}
	
	consort_allow = {
		chance = {
			modifier = {
				factor = 1
				consort_adm = 6
			}
		}
	}
	
	allow = {
		OR = {
			government = republic
			government = monarchy
		}
		NOT = { government = tribal_nomads_steppe }
		NOT = { government = tribal_nomads_altaic }
		NOT = { government = tribal_nomads_hereditary }
		NOT = { government = native_council }
		NOT = { government = siberian_native_council }
	}
	
	chance = {
		
	}
	
	easy_war_chance_multiplier = 0.75
	
	legitimacy = 0.25
	republican_tradition = 0.25
	diplomatic_reputation = 0.10
	
	nation_designer_cost = 5
} #1 better, 1 less bad

tolerant_personality = {
	#personality_events.13
	ruler_allow = {
		allow = {
			NOT = { ruler_has_personality = zealot_personality }
			NOT = { ruler_has_personality = free_thinker_personality }
		}
	}
	
	heir_allow = {
		allow = {
			NOT = { heir_has_personality = zealot_personality }
			NOT = { heir_has_personality = free_thinker_personality }
		}
	}
	
	consort_allow = {
		allow = {
			NOT = { consort_has_personality = zealot_personality }
			NOT = { consort_has_personality = free_thinker_personality }
		}
	}
	
	allow = {
		OR = {
			any_owned_province = { has_owner_religion = no }
			any_neighbor_country = { NOT = { religion = ROOT } }
		}
		#NOT = {
		#	has_idea_group = religious_ideas
		#}
	}
	
	chance = {
		modifier = {
			factor = 1
			NOT = { dominant_religion = ROOT }
		}
		modifier = {
			factor = 1
			has_idea_group = humanist_ideas
		}
	}
	
	heretic_ally_acceptance = 10
	heathen_ally_acceptance = 20
	
	tolerance_heretic = 1
	tolerance_heathen = 1
	global_missionary_strength = -0.01
	nation_designer_cost = 5
}

kind_hearted_personality = {
	#personality_events.14
	ruler_allow = {
		allow = {
			NOT = { ruler_has_personality = cruel_personality }
		}
	}
	
	heir_allow = {
		allow = {
			NOT = { heir_has_personality = cruel_personality }
		}
	}
	
	consort_allow = {
		allow = {
			NOT = { consort_has_personality = cruel_personality }
		}
	}
	allow = {
		
	}
	
	chance = {
	}
	
	gift_chance = 65
	
	war_exhaustion = -0.015
	
	nation_designer_cost = 10
} # 1 better

free_thinker_personality = {
	#personality_events.15
	ruler_allow = {
		allow = {
			NOT = { ruler_has_personality = careful_personality }
			NOT = { ruler_has_personality = zealot_personality }
		}
		
		chance = {
			modifier = {
				factor = 1
				dip = 6
			}
			modifier = {
				factor = 1
				adm = 6
			}
			modifier = {
				factor = 1
				mil = 6
			}
		}
	}
	
	heir_allow = {
		allow = {
			NOT = { heir_has_personality = careful_personality }
			NOT = { heir_has_personality = zealot_personality }
		}
		
		chance = {
			modifier = {
				factor = 1
				heir_dip = 6
			}
			modifier = {
				factor = 1
				heir_adm = 6
			}
			modifier = {
				factor = 1
				heir_mil = 6
			}
		}
	}
	
	consort_allow = {
		allow = {
			NOT = { consort_has_personality = careful_personality }
			NOT = { consort_has_personality = zealot_personality }
		}
		
		chance = {
			modifier = {
				factor = 1
				consort_dip = 6
			}
			modifier = {
				factor = 1
				consort_adm = 6
			}
			modifier = {
				factor = 1
				consort_mil = 6
			}
		}
	}
	allow = {
		
	}
	
	chance = {
	}
	
	custom_ai_explanation = "AI_RULER_SPEND_UNLOCK_INSTIT"
	
	idea_cost = -0.05
	technology_cost = -0.025
	stability_cost_modifier = 0.10
	
	nation_designer_cost = 5
} #1 easier event, 1 better event

well_connected_personality = {
	#personality_events.16
	
	ruler_allow = {
		chance = {
			modifier = {
				factor = 1
				ruler_is_foreigner = yes
			}
			modifier = {
				factor = 1
				dip = 6
			}
		}
	}
	heir_allow = {
		
		chance = {
			modifier = {
				factor = 1
				has_foreign_heir = yes
			}
			modifier = {
				factor = 1
				heir_dip = 6
			}
		}
	}
	consort_allow = {
		chance = {
			modifier = {
				factor = 1
				consort_dip = 6
			}
		}
	}
	
	allow = { }
	
	chance = {
		modifier = {
			factor = 1
			num_of_royal_marriages = 5
		}
	}
	
	other_ai_help_us_multiplier = 2
	
	advisor_cost = -0.1
	advisor_pool = 1
	
	nation_designer_cost = 5
} #1 better event

calm_personality = {
	#personality_events.17
	ruler_allow = {
		allow = {
			NOT = { ruler_has_personality = bold_fighter_personality }
		}
		
		chance = {
			modifier = {
				factor = 1
				is_monarch_leader = no
			}
		}
	}
	heir_allow = {
		allow = {
			NOT = { heir_has_personality = bold_fighter_personality }
		}
		
		chance = {
			modifier = {
				factor = 1
				is_heir_leader = no
			}
		}
	}
	consort_allow = {
		allow = {
			NOT = { consort_has_personality = bold_fighter_personality }
		}
	}
	
	allow = {
	}
	
	chance = {
	}
	
	war_chance_multiplier = 0.5
	easy_war_chance_multiplier = 0.75
	
	stability_cost_modifier = -0.10
	diplomatic_reputation = 0.25
	
	nation_designer_cost = 5
} #1 easier event

careful_personality = {
	#personality_events.18
	ruler_allow = {
		allow = {
			NOT = { ruler_has_personality = naive_personality }
			NOT = { ruler_has_personality = free_thinker_personality }
			NOT = { ruler_has_personality = bold_fighter_personality }
		}
		
		chance = {
			modifier = {
				factor = 1
				dip = 6
			}
		}
	}
	heir_allow = {
		allow = {
			NOT = { heir_has_personality = naive_personality }
			NOT = { heir_has_personality = free_thinker_personality }
			NOT = { heir_has_personality = bold_fighter_personality }
		}
		
		chance = {
			modifier = {
				factor = 1
				heir_dip = 6
			}
		}
	}
	consort_allow = {
		allow = {
			NOT = { consort_has_personality = naive_personality }
			NOT = { consort_has_personality = free_thinker_personality }
			NOT = { consort_has_personality = bold_fighter_personality }
		}
		
		chance = {
			modifier = {
				factor = 1
				consort_dip = 6
			}
		}
	}
	
	allow = {
		
	}
	
	chance = {
		
	}
	
	war_chance_multiplier = 0.4
	enemy_strength_multiplier = 1.2
	
	ae_impact = -0.10
	diplomatic_reputation = 0.5
	
	
	nation_designer_cost = 10
} #modifies scandal at court, 

secretive_personality = {
	#personality_events.19
	ruler_allow = {
		allow = {
			NOT = { ruler_has_personality = loose_lips_personality }
		}
		
		chance = {
			modifier = {
				factor = 1
				dip = 6
			}
		}
	}
	heir_allow = {
		allow = {
			NOT = { heir_has_personality = loose_lips_personality }
		}
		
		chance = {
			modifier = {
				factor = 1
				heir_dip = 6
			}
		}
	}
	consort_allow = {
		allow = {
			NOT = { consort_has_personality = loose_lips_personality }
		}
		
		chance = {
			modifier = {
				factor = 1
				consort_dip = 6
			}
		}
	}
	
	allow = {
		
	}
	
	chance = {
		
	}
	
	wants_condottieri = yes
	
	global_spy_defence = 0.25
	
	nation_designer_cost = 5
}

intricate_web_weaver_personality = {
	#personality_events.20
	ruler_allow = {
		allow = {
			NOT = { ruler_has_personality = loose_lips_personality }
			adm = 3
		}
		
		chance = {
			modifier = {
				factor = 1
				dip = 6
			}
		}
	}
	heir_allow = {
		allow = {
			NOT = { heir_has_personality = loose_lips_personality }
			heir_adm = 3
		}
		
		chance = {
			modifier = {
				factor = 1
				heir_dip = 6
			}
		}
	}
	consort_allow = {
		allow = {
			NOT = { consort_has_personality = loose_lips_personality }
			consort_adm = 3
		}
		
		chance = {
			modifier = {
				factor = 1
				consort_dip = 6
			}
		}
	}
	
	allow = {
		OR = {
			AND = {
				has_game_started = no
				is_playing_custom_nation = yes
			}
			any_known_country = {
				exists = yes #Need to be able to spy on *someone*
			}
		}
	}
	
	chance = {
	}
	
	wants_condottieri = yes
	
	spy_offence = 0.25
	
	nation_designer_cost = 5
} #1 easier event

fertile_personality = {
	#personality_events.21
	#personality_events.22
	ruler_allow = {
		allow = {
			NOT = { ruler_has_personality = infertile_personality }
			NOT = { ruler_age = 35 }
		}
		
		chance = {
			modifier = {
				factor = 1
			}
		}
	}
	
	heir_allow = {
		allow = {
			NOT = { heir_has_personality = infertile_personality }
			NOT = { heir_age = 35 }
		}
		
		chance = {
			modifier = {
				factor = 1
			}
		}
	}
	
	consort_allow = {
		allow = {
			NOT = { consort_has_personality = infertile_personality }
			#NOT = { consort_age = 35 }
		}
		
		chance = {
			modifier = {
				factor = 1
			}
		}
	}
	allow = {
		government = monarchy
		NOT = { government = ottoman_government }
	}
	
	chance = {
	}
	
	royal_marriage_acceptance = 20
	
	heir_chance = 0.5
	prestige = 0.10
	
	nation_designer_cost = 5
}

well_advised_personality = {
	#personality_events.23 (monarchies)
	#personality_events.24 (republics and theocracies)
	ruler_allow = {
		chance = {
			modifier = {
				factor = 1
				dip = 6
			}
		}
	}
	
	heir_allow = {
		chance = {
			modifier = {
				factor = 1
				heir_dip = 6
			}
		}
	}
	
	consort_allow = {
		chance = {
			modifier = {
				factor = 1
				consort_dip = 6
			}
		}
	}
	
	allow = { }
	
	chance = {
	}
	
	war_chance_multiplier = 0.6
	
	advisor_pool = 1
	idea_cost = -0.05
	
	nation_designer_cost = 5
} #2 better events

benevolent_personality = {
	#personality_events.28
	ruler_allow = {
		allow = {
			NOT = { ruler_has_personality = malevolent_personality }
			dip = 3
		}
		
		chance = {
			modifier = {
				factor = 1
				dip = 6
			}
		}
	}
	
	heir_allow = {
		allow = {
			NOT = { heir_has_personality = malevolent_personality }
			heir_dip = 3
		}
		
		chance = {
			modifier = {
				factor = 1
				heir_dip = 6
			}
		}
	}
	
	consort_allow = {
		allow = {
			NOT = { consort_has_personality = malevolent_personality }
			consort_dip = 3
		}
		
		chance = {
			modifier = {
				factor = 1
				consort_dip = 6
			}
		}
	}
	
	allow = {
		
	}
	
	chance = {
		modifier = {
			factor = 1
			vassal = 2
		}
	}
	
	gift_chance = 25
	
	prestige = 0.10
	
	reduced_liberty_desire = 5
	
	nation_designer_cost = 5
}

zealot_personality = {
	#personality_events.26
	ruler_allow = {
		allow = {
			NOT = { ruler_has_personality = tolerant_personality }
			NOT = { ruler_has_personality = free_thinker_personality }
			NOT = { ruler_has_personality = drunkard_personality }
		}
	}
	
	heir_allow = {
		allow = {
			NOT = { heir_has_personality = tolerant_personality }
			NOT = { heir_has_personality = free_thinker_personality }
			NOT = { heir_has_personality = drunkard_personality }
		}
	}
	
	consort_allow = {
		allow = {
			NOT = { consort_has_personality = tolerant_personality }
			NOT = { consort_has_personality = free_thinker_personality }
			NOT = { consort_has_personality = drunkard_personality }
		}
	}
	
	allow = {
		NOT = { has_idea_group = humanist_ideas }
	}
	
	chance = {
		modifier = {
			factor = 0.5
			dominant_religion = ROOT
			any_owned_province = {
				is_state = yes
				has_owner_religion = no
			}
		}
		modifier = {
			factor = 1
			num_of_missionaries = 2
		}
		modifier = {
			factor = 1
			has_border_with_religious_enemy = yes
		}
		modifier = {
			factor = 1
			is_defender_of_faith = yes
		}
		
	}
	
	different_religion_war_multiplier = 2
	heretic_ally_acceptance = -1000
	heathen_ally_acceptance = -1000
	wants_heathen_land = yes
	wants_heretic_land = yes
	
	global_missionary_strength = 0.01
	tolerance_own = 0.5
	
	nation_designer_cost = 5
}#1 better event, 1 less bad

pious_personality = {
	#personality_events.27
	ruler_allow = {
		allow = {
			NOT = { ruler_has_personality = sinner_personality }
			NOT = { ruler_has_personality = drunkard_personality }
		}
	}
	
	heir_allow = {
		allow = {
			NOT = { heir_has_personality = sinner_personality }
			NOT = { heir_has_personality = drunkard_personality }
		}
	}
	
	allow = {
		government = theocracy
	}
	
	chance = {
		modifier = {
			factor = 1
			dominant_religion = ROOT
		}
	}
	
	different_religion_war_multiplier = 1.5
	wants_excommunicate = yes
	heretic_ally_acceptance = -30
	
	devotion = 1
	tolerance_own = 0.5
	
	nation_designer_cost = 5
} #1 Less bad

#Economic/Administrative Traits
lawgiver_personality = {
	#personality_events.29
	ruler_allow = {
		allow = {
			adm = 3
		}
		
		chance = {
			modifier = {
				factor = 1
				adm = 6
			}
		}
	}
	
	heir_allow = {
		allow = {
			heir_adm = 3
		}
		
		chance = {
			modifier = {
				factor = 1
				heir_adm = 6
			}
		}
	}
	
	consort_allow = {
		allow = {
			consort_adm = 3
		}
		
		chance = {
			modifier = {
				factor = 1
				consort_adm = 6
			}
		}
	}
	
	allow = {
		
	}
	
	chance = {
		
	}
	
	custom_ai_explanation = "AI_RULER_PICK_IDEA_GROUPS"
	
	global_autonomy = -0.025
	stability_cost_modifier = -0.05
	
	nation_designer_cost = 10
} #2 easier events

incorruptible_personality = {
	#personality_events.31
	ruler_allow = {
		allow = {
			NOT = { ruler_has_personality = embezzler_personality }
			adm = 3
		}
		
		chance = {
			modifier = {
				factor = 1
				adm = 6
			}
		}
	}
	
	heir_allow = {
		allow = {
			NOT = { heir_has_personality = embezzler_personality }
			heir_adm = 3
		}
		
		chance = {
			modifier = {
				factor = 1
				heir_adm = 6
			}
		}
	}
	
	consort_allow = {
		allow = {
			NOT = { consort_has_personality = embezzler_personality }
			consort_adm = 3
		}
		
		chance = {
			modifier = {
				factor = 1
				consort_adm = 6
			}
		}
	}
	
	allow = {
		
	}
	
	chance = {
		
	}
	
	gift_chance = -50
	wants_avoid_debase = yes
	
	yearly_corruption = -0.05
	
	nation_designer_cost = 5
} #1 better, 1 less bad

architectural_visionary_personality = {
	#personality_events.32
	ruler_allow = {
		allow = {
			NOT = { ruler_has_personality = obsessive_perfectionist_personality }
		}
		
		chance = {
			modifier = {
				factor = 1
				adm = 6
			}
		}
	}
	
	heir_allow = {
		allow = {
			NOT = { heir_has_personality = obsessive_perfectionist_personality }
		}
		
		chance = {
			modifier = {
				factor = 1
				heir_adm = 6
			}
		}
	}
	
	consort_allow = {
		allow = {
			NOT = { consort_has_personality = obsessive_perfectionist_personality }
		}
		
		chance = {
			modifier = {
				factor = 1
				consort_adm = 6
			}
		}
	}
	
	allow = {
	}
	
	chance = {
	}
	
	building_budget_multiplier = 3
	
	build_cost = -0.1
	prestige = 0.10
	adm_tech_cost_modifier = -0.05
	
	nation_designer_cost = 5
}

scholar_personality = {
	#personality_events.1 - 9
	ruler_allow = {
		chance = {
			modifier = {
				factor = -0.5
				is_monarch_leader = yes
			}
			modifier = {
				factor = 1
				adm = 6
			}
		}
	}
	
	heir_allow = {
		chance = {
			modifier = {
				factor = -0.5
				is_heir_leader = yes
			}
			modifier = {
				factor = 1
				heir_adm = 6
			}
		}
	}
	
	consort_allow = {
		chance = {
			modifier = {
				factor = 1
				consort_adm = 6
			}
		}
	}
	
	allow = { }
	
	chance = { }
	
	custom_ai_explanation = "AI_RULER_SPEND_UNLOCK_INSTIT"
	
	technology_cost = -0.05
	
	nation_designer_cost = 10
} #comet chance less likely and makes it good (1 easier event), 2 easier events

entrepreneur_personality = {
	#personality_events.33
	ruler_allow = {
		allow = {
			NOT = { ruler_has_personality = drunkard_personality }
		}
		
		chance = {
			modifier = {
				factor = 1
				dip = 6
			}
		}
	}
	
	heir_allow = {
		allow = {
			NOT = { heir_has_personality = drunkard_personality }
		}
		
		chance = {
			modifier = {
				factor = 1
				heir_dip = 6
			}
		}
	}
	
	consort_allow = {
		allow = {
			NOT = { consort_has_personality = drunkard_personality }
		}
		
		chance = {
			modifier = {
				factor = 1
				consort_dip = 6
			}
		}
	}
	
	allow = {
		
	}
	
	chance = {
		modifier = {
			factor = 1
			government = merchant_republic
		}
	}
	
	building_budget_multiplier = 1.5
	
	trade_efficiency = 0.1
	global_foreign_trade_power = 0.1
	
	nation_designer_cost = 5
} #Opens Exceptional Year, 1 better event, 3 less bad

industrious_personality = {
	#personality_events.34
	ruler_allow = {
		chance = {
			modifier = {
				factor = 1
				dip = 6
			}
		}
	}
	
	heir_allow = {
		chance = {
			modifier = {
				factor = 1
				heir_dip = 6
			}
		}
	}
	
	consort_allow = {
		chance = {
			modifier = {
				factor = 1
				consort_dip = 6
			}
		}
	}
	
	allow = { }
	
	chance = {
		modifier = {
			factor = 1
			government = merchant_republic
		}
	}
	
	building_budget_multiplier = 1.2
	custom_ai_explanation = "AI_RULER_PICK_IDEA_GROUPS"
	
	global_trade_goods_size_modifier = 0.025
	production_efficiency = 0.1
	
	nation_designer_cost = 5
} #Opens Exceptional Year, 1 better event

expansionist_personality = {
	#personality_events.35
	ruler_allow = {
		chance = {
			modifier = {
				factor = 1
				dip = 6
			}
		}
	}
	
	heir_allow = {
		chance = {
			modifier = {
				factor = 1
				heir_dip = 6
			}
		}
	}
	
	consort_allow = {
		chance = {
			modifier = {
				factor = 1
				consort_dip = 6
			}
		}
	}
	
	allow = {
		OR = {
			num_of_colonists = 1
			AND = {
				has_game_started = no
				is_playing_custom_nation = yes
			}
		}
	}
	
	chance = {
		modifier = {
			factor = 1
			OR = {
				num_of_conquistadors = 1
				num_of_explorers = 1
			}
		}
		modifier = {
			factor = 1
			OR = {
				num_of_conquistadors = 2
				num_of_explorers = 2
			}
		}
		modifier = {
			factor = 1
			has_idea_group = exploration_ideas
			has_idea_group = expansion_ideas
		}
	}
	
	war_priority = {
		modifier = {
			factor = 2
			primitives = yes
		}
	}
	
	wants_colonies = yes
	
	global_colonial_growth = 5
	colonist_placement_chance = 0.025
	
	nation_designer_cost = 5
} #Better Event

#Diplomacy Traits
charismatic_negotiator_personality = {
	ruler_allow = {
		allow = {
			NOT = { ruler_has_personality = babbling_buffoon_personality }
			dip = 3
		}
		
		chance = {
			modifier = {
				factor = -0.5
				is_monarch_leader = yes
			}
			modifier = {
				factor = 1.5
				dip = 6
			}
		}
	}
	
	heir_allow = {
		allow = {
			NOT = { heir_has_personality = babbling_buffoon_personality }
			heir_dip = 3
		}
		
		chance = {
			modifier = {
				factor = -0.5
				is_heir_leader = yes
			}
			modifier = {
				factor = 1.5
				heir_dip = 6
			}
		}
	}
	
	consort_allow = {
		allow = {
			NOT = { consort_has_personality = babbling_buffoon_personality }
			consort_dip = 3
		}
		
		chance = {
			modifier = {
				factor = 1.5
				consort_dip = 6
			}
		}
	}
	
	allow = {
		
		
	}
	
	chance = {
	}
	
	other_ai_peace_term_bonus = 10
	
	diplomatic_reputation = 1
	prestige = 0.10
	
	nation_designer_cost = 5
} #1 easier event, 2 better events

silver_tongue_personality = {
	ruler_allow = {
		allow = {
			NOT = { ruler_has_personality = babbling_buffoon_personality }
			NOT = { ruler_has_personality = naive_personality }
			dip = 3
		}
		
		chance = {
			modifier = {
				factor = -0.5
				is_monarch_leader = yes
			}
			modifier = {
				factor = 1.5
				dip = 6
			}
		}
	}
	
	heir_allow = {
		allow = {
			NOT = { heir_has_personality = babbling_buffoon_personality }
			NOT = { heir_has_personality = naive_personality }
			heir_dip = 3
		}
		
		chance = {
			modifier = {
				factor = -0.5
				is_heir_leader = yes
			}
			modifier = {
				factor = 1.5
				heir_dip = 6
			}
		}
	}
	
	consort_allow = {
		allow = {
			NOT = { consort_has_personality = babbling_buffoon_personality }
			NOT = { consort_has_personality = naive_personality }
			consort_dip = 3
		}
		
		chance = {
			modifier = {
				factor = 1.5
				consort_dip = 6
			}
		}
	}
	
	allow = {
	}
	
	chance = {
		
	}
	
	other_ai_war_chance_multiplier = 0.5
	
	improve_relation_modifier = 0.25
	diplomatic_reputation = 0.5
	
	nation_designer_cost = 5
} #2 easier events, 3 better events

#Military Traits
conqueror_personality = {
	ruler_allow = {
		allow = {
			mil = 3
		}
		
		chance = {
			modifier = {
				factor = 1
				is_monarch_leader = yes
			}
			modifier = {
				factor = 1
				mil = 6
			}
		}
	}
	
	heir_allow = {
		allow = {
			heir_mil = 3
		}
		
		chance = {
			modifier = {
				factor = 1
				is_heir_leader = yes
			}
			modifier = {
				factor = 1
				heir_mil = 6
			}
		}
	}
	
	consort_allow = {
		allow = {
			consort_mil = 3
		}
		
		chance = {
			modifier = {
				factor = 1
				consort_mil = 6
			}
		}
	}
	
	allow = {
		
	}
	
	years_of_nationalism = -5
	fabricate_claims_cost = -0.10
	
	nation_designer_cost = 5
	
	easy_war_chance_multiplier = 2
	war_chance_multiplier = 1.75
	building_budget_multiplier = 0.2
	gift_chance = -50
	wants_land = yes
	
	chance = {
		
	}
}

tactical_genius_personality = {
	ruler_allow = {
		allow = {
			mil = 5
		}
		
		chance = {
			modifier = {
				factor = 1
				is_monarch_leader = yes
			}
			modifier = {
				factor = 1
				mil = 6
			}
		}
	}
	
	heir_allow = {
		allow = {
			heir_mil = 3
		}
		
		chance = {
			modifier = {
				factor = 1
				is_heir_leader = yes
			}
			modifier = {
				factor = 1
				heir_mil = 6
			}
		}
	}
	
	consort_allow = {
		allow = {
			consort_mil = 5
		}
		
		chance = {
			modifier = {
				factor = 1
				consort_mil = 6
			}
		}
	}
	
	allow = {
	}
	
	chance = {
	}
	
	easy_war_chance_multiplier = 1.4
	
	leader_land_manuever = 1
	land_attrition = -0.025
	movement_speed = 0.025
	
	nation_designer_cost = 5
} #1 better

bold_fighter_personality = {
	ruler_allow = {
		allow = {
			NOT = { ruler_has_personality = careful_personality }
		}
		chance = {
			modifier = {
				factor = 1
				is_monarch_leader = yes
			}
			modifier = {
				factor = 1
				mil = 6
			}
		}
	}
	
	heir_allow = {
		allow = {
			NOT = { ruler_has_personality = careful_personality }
		}
		chance = {
			modifier = {
				factor = 1
				is_heir_leader = yes
			}
			modifier = {
				factor = 1
				heir_mil = 6
			}
		}
	}
	
	consort_allow = {
		allow = {
			NOT = { ruler_has_personality = careful_personality }
		}
		chance = {
			modifier = {
				factor = 1
				consort_mil = 6
			}
		}
	}
	
	allow = { }
	
	chance = {
	}
	
	enemy_strength_multiplier = 0.85
	
	leader_land_shock = 1
	
	nation_designer_cost = 5
} #

strict_personality = {
	ruler_allow = {
		chance = {
			modifier = {
				factor = 1
				is_monarch_leader = yes
			}
			modifier = {
				factor = 1
				mil = 6
			}
		}
	}
	
	heir_allow = {
		chance = {
			modifier = {
				factor = 1
				is_heir_leader = yes
			}
			modifier = {
				factor = 1
				heir_mil = 6
			}
		}
	}
	
	consort_allow = {
		chance = {
			modifier = {
				factor = 1
				consort_mil = 6
			}
		}
	}
	
	allow = { }
	
	chance = {
	}
	
	wants_avoid_debase = yes
	wants_avoid_loans = yes
	
	discipline = 0.02
	
	nation_designer_cost = 10
} #1 easier event

inspiring_leader_personality = {
	ruler_allow = {
		allow = {
			mil = 3
			NOT = { ruler_has_personality = craven_personality }
		}
		
		chance = {
			modifier = {
				factor = 1
				is_monarch_leader = yes
			}
			modifier = {
				factor = 1
				mil = 6
			}
		}
	}
	
	heir_allow = {
		allow = {
			heir_mil = 3
			NOT = { heir_has_personality = craven_personality }
		}
		
		chance = {
			modifier = {
				factor = 1
				is_heir_leader = yes
			}
			modifier = {
				factor = 1
				heir_mil = 6
			}
		}
	}
	
	consort_allow = {
		allow = {
			consort_mil = 3
			NOT = { consort_has_personality = craven_personality }
		}
		
		chance = {
			modifier = {
				factor = 1
				consort_mil = 6
			}
		}
	}
	
	allow = {
	}
	
	chance = {
	}
	
	alliance_acceptance = 10
	
	land_morale = 0.05
	prestige_from_land = 0.25
	recover_army_morale_speed = 0.025
	
	
	nation_designer_cost = 10
} #1 better

martial_educator_personality = {
	ruler_allow = {
		allow = {
			mil = 3
		}
		
		chance = {
			modifier = {
				factor = 1
				mil = 6
			}
		}
	}
	
	heir_allow = {
		allow = {
			heir_mil = 3
		}
		
		chance = {
			modifier = {
				factor = 1
				heir_mil = 6
			}
		}
	}
	
	consort_allow = {
		allow = {
			consort_mil = 3
		}
		
		chance = {
			modifier = {
				factor = 1
				consort_mil = 6
			}
		}
	}
	
	allow = {
	}
	
	chance = {
	}
	
	easy_war_chance_multiplier = 1.2
	custom_ai_explanation = "AI_RULER_PICK_IDEA_GROUPS"
	
	army_tradition_decay = -0.05
	
	nation_designer_cost = 5
} #1 easier event, 2 better events

navigator_personality = {
	ruler_allow = {
		chance = {
			modifier = {
				factor = 1
				dip = 6
			}
		}
	}
	
	heir_allow = {
		chance = {
			modifier = {
				factor = 1
				heir_dip = 6
			}
		}
	}
	
	consort_allow = {
		chance = {
			modifier = {
				factor = 1
				consort_dip = 6
			}
		}
	}
	
	allow = {
		OR = {
			AND = {
				has_game_started = no
				is_playing_custom_nation = yes
			}
			num_of_ports = 1
		}
	}
	
	chance = {
	}
	
	custom_ai_explanation = "AI_RULER_PICK_IDEA_GROUPS"
	wants_explorers = yes
	
	ship_durability = 0.05
	dip_tech_cost_modifier = -0.05
	range = 0.10
	
	nation_designer_cost = 5
} #1 better event

fierce_negotiator_personality = {
	ruler_allow = {
		allow = {
			dip = 3
		}
		
		chance = {
			modifier = {
				factor = 1
				dip = 6
			}
		}
	}
	
	heir_allow = {
		allow = {
			heir_dip = 3
		}
		
		chance = {
			modifier = {
				factor = 1
				heir_dip = 6
			}
		}
	}
	
	consort_allow = {
		allow = {
			consort_dip = 3
		}
		
		chance = {
			modifier = {
				factor = 1
				consort_dip = 6
			}
		}
	}
	
	allow = {
		
	}
	
	chance = {
		
	}
	
	peace_desire = -10
	
	merc_maintenance_modifier = -0.10
	possible_mercenaries = 0.25
	
	nation_designer_cost = 5
} #1 easier event

###############################################
# Bad
###############################################

babbling_buffoon_personality = {
	ruler_allow = {
		allow = {
			NOT = { ruler_has_personality = charismatic_negotiator_personality }
			NOT = { ruler_has_personality = silver_tongue_personality }
		}
		
		chance = {
			modifier = {
				factor = -0.5
				OR = {
					ruler_has_personality = malevolent_personality
					ruler_has_personality = obsessive_perfectionist_personality
					ruler_has_personality = loose_lips_personality
					ruler_has_personality = craven_personality
					ruler_has_personality = naive_personality
					ruler_has_personality = cruel_personality
					ruler_has_personality = greedy_personality
					ruler_has_personality = sinner_personality
					ruler_has_personality = drunkard_personality
					ruler_has_personality = infertile_personality
					ruler_has_personality = embezzler_personality
				}
			}
		}
	}
	
	heir_allow = {
		allow = {
			NOT = { heir_has_personality = charismatic_negotiator_personality }
			NOT = { heir_has_personality = silver_tongue_personality }
		}
		
		chance = {
			modifier = {
				factor = -0.5
				OR = {
					heir_has_personality = malevolent_personality
					heir_has_personality = obsessive_perfectionist_personality
					heir_has_personality = loose_lips_personality
					heir_has_personality = craven_personality
					heir_has_personality = naive_personality
					heir_has_personality = cruel_personality
					heir_has_personality = greedy_personality
					heir_has_personality = sinner_personality
					heir_has_personality = drunkard_personality
					heir_has_personality = infertile_personality
					heir_has_personality = embezzler_personality
				}
			}
		}
	}
	
	consort_allow = {
		allow = {
			NOT = { consort_has_personality = charismatic_negotiator_personality }
			NOT = { consort_has_personality = silver_tongue_personality }
		}
		
		chance = {
			modifier = {
				factor = -0.5
				OR = {
					consort_has_personality = malevolent_personality
					consort_has_personality = obsessive_perfectionist_personality
					consort_has_personality = loose_lips_personality
					consort_has_personality = craven_personality
					consort_has_personality = naive_personality
					consort_has_personality = cruel_personality
					consort_has_personality = greedy_personality
					consort_has_personality = sinner_personality
					consort_has_personality = drunkard_personality
					consort_has_personality = infertile_personality
					consort_has_personality = embezzler_personality
				}
			}
		}
	}
	
	allow = {
		
	}
	
	diplomatic_reputation = -1
	prestige = -0.10
	
	nation_designer_cost = -5
	
	random_insults = yes
	
	chance = {
		
	}
} #Scandal at court more likely

embezzler_personality = {
	ruler_allow = {
		allow = {
			NOT = { ruler_has_personality = incorruptible_personality }
		}
		
		chance = {
			modifier = {
				factor = -0.5
				OR = {
					ruler_has_personality = malevolent_personality
					ruler_has_personality = obsessive_perfectionist_personality
					ruler_has_personality = loose_lips_personality
					ruler_has_personality = craven_personality
					ruler_has_personality = naive_personality
					ruler_has_personality = cruel_personality
					ruler_has_personality = greedy_personality
					ruler_has_personality = sinner_personality
					ruler_has_personality = drunkard_personality
					ruler_has_personality = infertile_personality
					ruler_has_personality = babbling_buffoon_personality
				}
			}
		}
	}
	
	heir_allow = {
		allow = {
			NOT = { heir_has_personality = incorruptible_personality }
		}
		
		chance = {
			modifier = {
				factor = -0.5
				OR = {
					heir_has_personality = malevolent_personality
					heir_has_personality = obsessive_perfectionist_personality
					heir_has_personality = loose_lips_personality
					heir_has_personality = craven_personality
					heir_has_personality = naive_personality
					heir_has_personality = cruel_personality
					heir_has_personality = greedy_personality
					heir_has_personality = sinner_personality
					heir_has_personality = drunkard_personality
					heir_has_personality = infertile_personality
					heir_has_personality = babbling_buffoon_personality
				}
			}
		}
	}
	
	consort_allow = {
		allow = {
			NOT = { consort_has_personality = incorruptible_personality }
		}
		
		chance = {
			modifier = {
				factor = -0.5
				OR = {
					consort_has_personality = malevolent_personality
					consort_has_personality = obsessive_perfectionist_personality
					consort_has_personality = loose_lips_personality
					consort_has_personality = craven_personality
					consort_has_personality = naive_personality
					consort_has_personality = cruel_personality
					consort_has_personality = greedy_personality
					consort_has_personality = sinner_personality
					consort_has_personality = drunkard_personality
					consort_has_personality = infertile_personality
					consort_has_personality = babbling_buffoon_personality
				}
			}
		}
	}
	
	allow = {
		
	}
	
	chance = {
	}
	
	wants_debase = yes
	#wants_sell_ships = yes
	wants_sell_provinces = yes
	
	yearly_corruption = 0.05
	
	nation_designer_cost = -5
} #1 easier event, 4 better event, 1 less bad

infertile_personality = {
	ruler_allow = {
		allow = {
			NOT = { ruler_has_personality = fertile_personality }
		}
		
		chance = {
			modifier = {
				factor = 1
				ruler_age = 40
			}
			modifier = {
				factor = -0.5
				OR = {
					ruler_has_personality = malevolent_personality
					ruler_has_personality = obsessive_perfectionist_personality
					ruler_has_personality = loose_lips_personality
					ruler_has_personality = craven_personality
					ruler_has_personality = naive_personality
					ruler_has_personality = cruel_personality
					ruler_has_personality = greedy_personality
					ruler_has_personality = sinner_personality
					ruler_has_personality = drunkard_personality
					ruler_has_personality = embezzler_personality
					ruler_has_personality = babbling_buffoon_personality
				}
			}
		}
	}
	
	heir_allow = {
		allow = {
			NOT = { heir_has_personality = fertile_personality }
		}
		
		chance = {
			modifier = {
				factor = -0.5
				OR = {
					heir_has_personality = malevolent_personality
					heir_has_personality = obsessive_perfectionist_personality
					heir_has_personality = loose_lips_personality
					heir_has_personality = craven_personality
					heir_has_personality = naive_personality
					heir_has_personality = cruel_personality
					heir_has_personality = greedy_personality
					heir_has_personality = sinner_personality
					heir_has_personality = drunkard_personality
					heir_has_personality = embezzler_personality
					heir_has_personality = babbling_buffoon_personality
				}
			}
			modifier = {
				factor = 1
				heir_age = 40
			}
		}
	}
	
	consort_allow = {
		allow = {
			NOT = { consort_has_personality = fertile_personality }
		}
		
		chance = {
			modifier = {
				factor = 1
				consort_age = 40
			}
			modifier = {
				factor = -0.5
				OR = {
					consort_has_personality = malevolent_personality
					consort_has_personality = obsessive_perfectionist_personality
					consort_has_personality = loose_lips_personality
					consort_has_personality = craven_personality
					consort_has_personality = naive_personality
					consort_has_personality = cruel_personality
					consort_has_personality = greedy_personality
					consort_has_personality = sinner_personality
					consort_has_personality = drunkard_personality
					consort_has_personality = embezzler_personality
					consort_has_personality = babbling_buffoon_personality
				}
			}
		}
	}
	
	allow = {
		NOT = { government = ottoman_government }
		government = monarchy
	}
	
	chance = {
		
	}
	
	royal_marriage_acceptance = -20
	
	heir_chance = -0.5
	prestige = -0.10
	legitimacy = -0.20
	
	nation_designer_cost = -5
}

drunkard_personality = {
	ruler_allow = {
		allow = {
			NOT = { ruler_has_personality = pious_personality }
			NOT = { ruler_has_personality = entrepreneur_personality }
			NOT = { ruler_has_personality = zealot_personality }
		}
		
		chance = {
			modifier = {
				factor = -0.5
				OR = {
					ruler_has_personality = malevolent_personality
					ruler_has_personality = obsessive_perfectionist_personality
					ruler_has_personality = loose_lips_personality
					ruler_has_personality = craven_personality
					ruler_has_personality = naive_personality
					ruler_has_personality = cruel_personality
					ruler_has_personality = greedy_personality
					ruler_has_personality = sinner_personality
					ruler_has_personality = infertile_personality
					ruler_has_personality = embezzler_personality
					ruler_has_personality = babbling_buffoon_personality
				}
			}
		}
	}
	
	heir_allow = {
		allow = {
			NOT = { heir_has_personality = pious_personality }
			NOT = { heir_has_personality = entrepreneur_personality }
			NOT = { heir_has_personality = zealot_personality }
		}
		
		chance = {
			modifier = {
				factor = -0.5
				OR = {
					heir_has_personality = malevolent_personality
					heir_has_personality = obsessive_perfectionist_personality
					heir_has_personality = loose_lips_personality
					heir_has_personality = craven_personality
					heir_has_personality = naive_personality
					heir_has_personality = cruel_personality
					heir_has_personality = greedy_personality
					heir_has_personality = sinner_personality
					heir_has_personality = infertile_personality
					heir_has_personality = embezzler_personality
					heir_has_personality = babbling_buffoon_personality
				}
			}
		}
	}
	
	consort_allow = {
		allow = {
			NOT = { consort_has_personality = pious_personality }
			NOT = { consort_has_personality = entrepreneur_personality }
			NOT = { consort_has_personality = zealot_personality }
		}
		
		chance = {
			modifier = {
				factor = -0.5
				OR = {
					consort_has_personality = malevolent_personality
					consort_has_personality = obsessive_perfectionist_personality
					consort_has_personality = loose_lips_personality
					consort_has_personality = craven_personality
					consort_has_personality = naive_personality
					consort_has_personality = cruel_personality
					consort_has_personality = greedy_personality
					consort_has_personality = sinner_personality
					consort_has_personality = infertile_personality
					consort_has_personality = embezzler_personality
					consort_has_personality = babbling_buffoon_personality
				}
			}
		}
	}
	
	allow = {
		
	}
	
	chance = {
	}
	
	random_troop_moves = yes
	wants_loans = yes
	
	diplomatic_reputation = -0.5
	prestige = -0.25
	
	nation_designer_cost = -5
} #Scandal at court more likely

sinner_personality = {
	
	ruler_allow = {
		allow = {
			NOT = { ruler_has_personality = pious_personality }
		}
		
		chance = {
			modifier = {
				factor = -0.5
				OR = {
					ruler_has_personality = malevolent_personality
					ruler_has_personality = obsessive_perfectionist_personality
					ruler_has_personality = loose_lips_personality
					ruler_has_personality = craven_personality
					ruler_has_personality = naive_personality
					ruler_has_personality = cruel_personality
					ruler_has_personality = greedy_personality
					ruler_has_personality = drunkard_personality
					ruler_has_personality = infertile_personality
					ruler_has_personality = embezzler_personality
					ruler_has_personality = babbling_buffoon_personality
				}
			}
		}
	}
	
	heir_allow = {
		allow = {
			NOT = { heir_has_personality = pious_personality }
		}
		
		chance = {
			modifier = {
				factor = -0.5
				OR = {
					heir_has_personality = malevolent_personality
					heir_has_personality = obsessive_perfectionist_personality
					heir_has_personality = loose_lips_personality
					heir_has_personality = craven_personality
					heir_has_personality = naive_personality
					heir_has_personality = cruel_personality
					heir_has_personality = greedy_personality
					heir_has_personality = drunkard_personality
					heir_has_personality = infertile_personality
					heir_has_personality = embezzler_personality
					heir_has_personality = babbling_buffoon_personality
				}
			}
		}
	}
	
	consort_allow = {
		allow = {
			NOT = { consort_has_personality = pious_personality }
		}
		
		chance = {
			modifier = {
				factor = -0.5
				OR = {
					consort_has_personality = malevolent_personality
					consort_has_personality = obsessive_perfectionist_personality
					consort_has_personality = loose_lips_personality
					consort_has_personality = craven_personality
					consort_has_personality = naive_personality
					consort_has_personality = cruel_personality
					consort_has_personality = greedy_personality
					consort_has_personality = drunkard_personality
					consort_has_personality = infertile_personality
					consort_has_personality = embezzler_personality
					consort_has_personality = babbling_buffoon_personality
				}
			}
		}
	}
	
	allow = {
		OR = {
			religion_group = christian
			religion_group = muslim
		}
	}
	
	chance = {
	}
	
	different_religion_war_multiplier = 0.8
	razing = yes
	
	tolerance_own = -1
	
	nation_designer_cost = -5
} #1 better

greedy_personality = {
	ruler_allow = {
		allow = {
			NOT = { ruler_has_personality = midas_touched_personality }
		}
		
		chance = {
			modifier = {
				factor = -0.5
				OR = {
					ruler_has_personality = malevolent_personality
					ruler_has_personality = obsessive_perfectionist_personality
					ruler_has_personality = loose_lips_personality
					ruler_has_personality = craven_personality
					ruler_has_personality = naive_personality
					ruler_has_personality = cruel_personality
					ruler_has_personality = sinner_personality
					ruler_has_personality = drunkard_personality
					ruler_has_personality = infertile_personality
					ruler_has_personality = embezzler_personality
					ruler_has_personality = babbling_buffoon_personality
				}
			}
		}
	}
	
	heir_allow = {
		allow = {
			NOT = { heir_has_personality = midas_touched_personality }
		}
		
		chance = {
			modifier = {
				factor = -0.5
				OR = {
					heir_has_personality = malevolent_personality
					heir_has_personality = obsessive_perfectionist_personality
					heir_has_personality = loose_lips_personality
					heir_has_personality = craven_personality
					heir_has_personality = naive_personality
					heir_has_personality = cruel_personality
					heir_has_personality = sinner_personality
					heir_has_personality = drunkard_personality
					heir_has_personality = infertile_personality
					heir_has_personality = embezzler_personality
					heir_has_personality = babbling_buffoon_personality
				}
			}
		}
	}
	
	consort_allow = {
		allow = {
			NOT = { consort_has_personality = midas_touched_personality }
		}
		
		chance = {
			modifier = {
				factor = -0.5
				OR = {
					consort_has_personality = malevolent_personality
					consort_has_personality = obsessive_perfectionist_personality
					consort_has_personality = loose_lips_personality
					consort_has_personality = craven_personality
					consort_has_personality = naive_personality
					consort_has_personality = cruel_personality
					consort_has_personality = sinner_personality
					consort_has_personality = drunkard_personality
					consort_has_personality = infertile_personality
					consort_has_personality = embezzler_personality
					consort_has_personality = babbling_buffoon_personality
				}
			}
		}
	}
	
	allow = {
	}
	
	chance = {
	}
	
	wants_gold = yes
	gift_chance = -100
	
	war_priority = {
		modifier = {
			factor = 1.1
			treasury = 100
		}
		modifier = {
			factor = 1.2
			treasury = 500
		}
		modifier = {
			factor = 1.2
			treasury = 2500
		}
		modifier = {
			factor = 1.1
			treasury = 12500
		}
		modifier = {
			factor = 1.2
			gold_income_percentage = 0.05
		}
		modifier = {
			factor = 1.2
			gold_income_percentage = 0.1
		}
		modifier = {
			factor = 1.2
			gold_income_percentage = 0.2
		}
	}
	
	global_tax_modifier = -0.10
	prestige = -0.10
	
	nation_designer_cost = -5
} #2 better

cruel_personality = {
	
	ruler_allow = {
		allow = {
			NOT = { ruler_has_personality = just_personality }
			NOT = { ruler_has_personality = kind_hearted_personality }
		}
		
		chance = {
			modifier = {
				factor = -0.5
				OR = {
					ruler_has_personality = malevolent_personality
					ruler_has_personality = obsessive_perfectionist_personality
					ruler_has_personality = loose_lips_personality
					ruler_has_personality = craven_personality
					ruler_has_personality = naive_personality
					ruler_has_personality = greedy_personality
					ruler_has_personality = sinner_personality
					ruler_has_personality = drunkard_personality
					ruler_has_personality = infertile_personality
					ruler_has_personality = embezzler_personality
					ruler_has_personality = babbling_buffoon_personality
				}
			}
		}
	}
	
	heir_allow = {
		allow = {
			NOT = { heir_has_personality = just_personality }
			NOT = { heir_has_personality = kind_hearted_personality }
		}
		
		chance = {
			modifier = {
				factor = -0.5
				OR = {
					heir_has_personality = malevolent_personality
					heir_has_personality = obsessive_perfectionist_personality
					heir_has_personality = loose_lips_personality
					heir_has_personality = craven_personality
					heir_has_personality = naive_personality
					heir_has_personality = greedy_personality
					heir_has_personality = sinner_personality
					heir_has_personality = drunkard_personality
					heir_has_personality = infertile_personality
					heir_has_personality = embezzler_personality
					heir_has_personality = babbling_buffoon_personality
				}
			}
		}
	}
	
	consort_allow = {
		allow = {
			NOT = { consort_has_personality = just_personality }
			NOT = { consort_has_personality = kind_hearted_personality }
		}
		
		chance = {
			modifier = {
				factor = -0.5
				OR = {
					consort_has_personality = malevolent_personality
					consort_has_personality = obsessive_perfectionist_personality
					consort_has_personality = loose_lips_personality
					consort_has_personality = craven_personality
					consort_has_personality = naive_personality
					consort_has_personality = greedy_personality
					consort_has_personality = sinner_personality
					consort_has_personality = drunkard_personality
					consort_has_personality = infertile_personality
					consort_has_personality = embezzler_personality
					consort_has_personality = babbling_buffoon_personality
				}
			}
		}
	}
	
	razing = yes
	lower_autonomy = yes
	
	global_unrest = 2
	stability_cost_modifier = 0.10
	prestige = -0.10
	
	nation_designer_cost = -5
} #4 less bad

naive_personality = {
	ruler_allow = {
		allow = {
			NOT = { ruler_has_personality = silver_tongue_personality }
		}
		
		chance = {
			modifier = {
				factor = 1
				ruler_has_personality = free_thinker_personality
			}
			modifier = {
				factor = -0.5
				OR = {
					ruler_has_personality = malevolent_personality
					ruler_has_personality = obsessive_perfectionist_personality
					ruler_has_personality = loose_lips_personality
					ruler_has_personality = craven_personality
					ruler_has_personality = cruel_personality
					ruler_has_personality = greedy_personality
					ruler_has_personality = sinner_personality
					ruler_has_personality = drunkard_personality
					ruler_has_personality = infertile_personality
					ruler_has_personality = embezzler_personality
					ruler_has_personality = babbling_buffoon_personality
				}
			}
		}
	}
	
	heir_allow = {
		allow = {
			NOT = { heir_has_personality = silver_tongue_personality }
		}
		
		chance = {
			modifier = {
				factor = 1
				heir_has_personality = free_thinker_personality
			}
			modifier = {
				factor = -0.5
				OR = {
					heir_has_personality = malevolent_personality
					heir_has_personality = obsessive_perfectionist_personality
					heir_has_personality = loose_lips_personality
					heir_has_personality = craven_personality
					heir_has_personality = cruel_personality
					heir_has_personality = greedy_personality
					heir_has_personality = sinner_personality
					heir_has_personality = drunkard_personality
					heir_has_personality = infertile_personality
					heir_has_personality = embezzler_personality
					heir_has_personality = babbling_buffoon_personality
				}
			}
		}
	}
	
	consort_allow = {
		allow = {
			NOT = { consort_has_personality = silver_tongue_personality }
		}
		
		chance = {
			modifier = {
				factor = 1
				consort_has_personality = free_thinker_personality
			}
			modifier = {
				factor = -0.5
				OR = {
					consort_has_personality = malevolent_personality
					consort_has_personality = obsessive_perfectionist_personality
					consort_has_personality = loose_lips_personality
					consort_has_personality = craven_personality
					consort_has_personality = cruel_personality
					consort_has_personality = greedy_personality
					consort_has_personality = sinner_personality
					consort_has_personality = drunkard_personality
					consort_has_personality = infertile_personality
					consort_has_personality = embezzler_personality
					consort_has_personality = babbling_buffoon_personality
				}
			}
		}
	}
	
	allow = {
		
	}
	
	chance = {
	}
	
	#ignore_ae = yes
	fair_fights = yes
	gift_chance = 90
	
	improve_relation_modifier = -0.25
	diplomatic_reputation = -0.5
	global_spy_defence = -0.10
	
	nation_designer_cost = -5
} #1 Less bad event

craven_personality = {
	ruler_allow = {
		allow = {
			NOT = { ruler_has_personality = inspiring_leader_personality }
		}
		
		chance = {
			modifier = {
				factor = -0.5
				is_monarch_leader = no
			}
			modifier = {
				factor = -0.5
				OR = {
					ruler_has_personality = malevolent_personality
					ruler_has_personality = obsessive_perfectionist_personality
					ruler_has_personality = loose_lips_personality
					ruler_has_personality = naive_personality
					ruler_has_personality = cruel_personality
					ruler_has_personality = greedy_personality
					ruler_has_personality = sinner_personality
					ruler_has_personality = drunkard_personality
					ruler_has_personality = infertile_personality
					ruler_has_personality = embezzler_personality
					ruler_has_personality = babbling_buffoon_personality
				}
			}
		}
	}
	
	heir_allow = {
		allow = {
			NOT = { heir_has_personality = inspiring_leader_personality }
		}
		
		chance = {
			modifier = {
				factor = -0.5
				is_heir_leader = no
			}
			modifier = {
				factor = -0.5
				OR = {
					heir_has_personality = malevolent_personality
					heir_has_personality = obsessive_perfectionist_personality
					heir_has_personality = loose_lips_personality
					heir_has_personality = naive_personality
					heir_has_personality = cruel_personality
					heir_has_personality = greedy_personality
					heir_has_personality = sinner_personality
					heir_has_personality = drunkard_personality
					heir_has_personality = infertile_personality
					heir_has_personality = embezzler_personality
					heir_has_personality = babbling_buffoon_personality
				}
			}
		}
	}
	
	consort_allow = {
		allow = {
			NOT = { consort_has_personality = inspiring_leader_personality }
		}
		
		chance = {
			modifier = {
				factor = -0.5
				OR = {
					consort_has_personality = malevolent_personality
					consort_has_personality = obsessive_perfectionist_personality
					consort_has_personality = loose_lips_personality
					consort_has_personality = naive_personality
					consort_has_personality = cruel_personality
					consort_has_personality = greedy_personality
					consort_has_personality = sinner_personality
					consort_has_personality = drunkard_personality
					consort_has_personality = infertile_personality
					consort_has_personality = embezzler_personality
					consort_has_personality = babbling_buffoon_personality
				}
			}
		}
	}
	
	allow = {
	}
	
	chance = {
		
	}
	enemy_strength_multiplier = 1.25
	
	discipline = -0.01
	land_morale = -0.10
	prestige = -0.10
	
	nation_designer_cost = -10
}

loose_lips_personality = {
	ruler_allow = {
		allow = {
			NOT = { ruler_has_personality = intricate_web_weaver_personality }
			NOT = { ruler_has_personality = secretive_personality }
		}
		
		chance = {
			modifier = {
				factor = -0.5
				OR = {
					ruler_has_personality = malevolent_personality
					ruler_has_personality = obsessive_perfectionist_personality
					ruler_has_personality = craven_personality
					ruler_has_personality = naive_personality
					ruler_has_personality = cruel_personality
					ruler_has_personality = greedy_personality
					ruler_has_personality = sinner_personality
					ruler_has_personality = drunkard_personality
					ruler_has_personality = infertile_personality
					ruler_has_personality = embezzler_personality
					ruler_has_personality = babbling_buffoon_personality
				}
			}
		}
	}
	
	heir_allow = {
		allow = {
			NOT = { consort_has_personality = intricate_web_weaver_personality }
			NOT = { consort_has_personality = secretive_personality }
		}
		
		chance = {
			modifier = {
				factor = -0.5
				OR = {
					heir_has_personality = malevolent_personality
					heir_has_personality = obsessive_perfectionist_personality
					heir_has_personality = craven_personality
					heir_has_personality = naive_personality
					heir_has_personality = cruel_personality
					heir_has_personality = greedy_personality
					heir_has_personality = sinner_personality
					heir_has_personality = drunkard_personality
					heir_has_personality = infertile_personality
					heir_has_personality = embezzler_personality
					heir_has_personality = babbling_buffoon_personality
				}
			}
		}
	}
	
	consort_allow = {
		allow = {
			NOT = { consort_has_personality = intricate_web_weaver_personality }
			NOT = { consort_has_personality = secretive_personality }
		}
		
		chance = {
			modifier = {
				factor = -0.5
				OR = {
					consort_has_personality = malevolent_personality
					consort_has_personality = obsessive_perfectionist_personality
					consort_has_personality = craven_personality
					consort_has_personality = naive_personality
					consort_has_personality = cruel_personality
					consort_has_personality = greedy_personality
					consort_has_personality = sinner_personality
					consort_has_personality = drunkard_personality
					consort_has_personality = infertile_personality
					consort_has_personality = embezzler_personality
					consort_has_personality = babbling_buffoon_personality
				}
			}
		}
	}
	
	allow = {
	}
	
	chance = {
	}
	
	wants_disclose_attack = yes
	
	global_spy_defence = -0.25
	prestige = -0.10
	
	nation_designer_cost = -5
}

obsessive_perfectionist_personality = {
	ruler_allow = {
		allow = {
			NOT = { ruler_has_personality = architectural_visionary_personality }
		}
		
		chance = {
			modifier = {
				factor = -0.5
				OR = {
					ruler_has_personality = malevolent_personality
					ruler_has_personality = loose_lips_personality
					ruler_has_personality = craven_personality
					ruler_has_personality = naive_personality
					ruler_has_personality = cruel_personality
					ruler_has_personality = greedy_personality
					ruler_has_personality = sinner_personality
					ruler_has_personality = drunkard_personality
					ruler_has_personality = infertile_personality
					ruler_has_personality = embezzler_personality
					ruler_has_personality = babbling_buffoon_personality
				}
			}
		}
	}
	
	heir_allow = {
		allow = {
			NOT = { heir_has_personality = architectural_visionary_personality }
		}
		
		chance = {
			modifier = {
				factor = -0.5
				OR = {
					heir_has_personality = malevolent_personality
					heir_has_personality = loose_lips_personality
					heir_has_personality = craven_personality
					heir_has_personality = naive_personality
					heir_has_personality = cruel_personality
					heir_has_personality = greedy_personality
					heir_has_personality = sinner_personality
					heir_has_personality = drunkard_personality
					heir_has_personality = infertile_personality
					heir_has_personality = embezzler_personality
					heir_has_personality = babbling_buffoon_personality
				}
			}
		}
	}
	
	consort_allow = {
		allow = {
			NOT = { consort_has_personality = architectural_visionary_personality }
		}
		
		chance = {
			modifier = {
				factor = -0.5
				OR = {
					consort_has_personality = malevolent_personality
					consort_has_personality = loose_lips_personality
					consort_has_personality = craven_personality
					consort_has_personality = naive_personality
					consort_has_personality = cruel_personality
					consort_has_personality = greedy_personality
					consort_has_personality = sinner_personality
					consort_has_personality = drunkard_personality
					consort_has_personality = infertile_personality
					consort_has_personality = embezzler_personality
					consort_has_personality = babbling_buffoon_personality
				}
			}
		}
	}
	
	allow = {
	}
	
	chance = {
	}
	
	wants_avoid_ugly_borders = yes
	
	build_cost = 0.1
	global_tax_modifier = -0.025
	prestige = 0.25
	
	nation_designer_cost = -5
} #1 better, 1 less bad

malevolent_personality = {
	ruler_allow = {
		allow = {
			NOT = { ruler_has_personality = benevolent_personality }
		}
		
		chance = {
			modifier = {
				factor = -0.5
				OR = {
					ruler_has_personality = obsessive_perfectionist_personality
					ruler_has_personality = loose_lips_personality
					ruler_has_personality = craven_personality
					ruler_has_personality = naive_personality
					ruler_has_personality = cruel_personality
					ruler_has_personality = greedy_personality
					ruler_has_personality = sinner_personality
					ruler_has_personality = drunkard_personality
					ruler_has_personality = infertile_personality
					ruler_has_personality = embezzler_personality
					ruler_has_personality = babbling_buffoon_personality
				}
			}
		}
	}
	
	heir_allow = {
		allow = {
			NOT = { heir_has_personality = benevolent_personality }
		}
		
		chance = {
			modifier = {
				factor = -0.5
				OR = {
					heir_has_personality = obsessive_perfectionist_personality
					heir_has_personality = loose_lips_personality
					heir_has_personality = craven_personality
					heir_has_personality = naive_personality
					heir_has_personality = cruel_personality
					heir_has_personality = greedy_personality
					heir_has_personality = sinner_personality
					heir_has_personality = drunkard_personality
					heir_has_personality = infertile_personality
					heir_has_personality = embezzler_personality
					heir_has_personality = babbling_buffoon_personality
				}
			}
		}
	}
	
	consort_allow = {
		allow = {
			NOT = { consort_has_personality = benevolent_personality }
		}
		
		chance = {
			modifier = {
				factor = -0.5
				OR = {
					consort_has_personality = obsessive_perfectionist_personality
					consort_has_personality = loose_lips_personality
					consort_has_personality = craven_personality
					consort_has_personality = naive_personality
					consort_has_personality = cruel_personality
					consort_has_personality = greedy_personality
					consort_has_personality = sinner_personality
					consort_has_personality = drunkard_personality
					consort_has_personality = infertile_personality
					consort_has_personality = embezzler_personality
					consort_has_personality = babbling_buffoon_personality
				}
			}
		}
	}
	
	allow = {
		
	}
	
	chance = {
	}
	
	wants_betray_allies = yes
	wants_threaten_war = yes
	send_warning_desire = 50
	
	reduced_liberty_desire = -5
	nation_designer_cost = -5
} #1 less bad

# Immortal, for games converted from CKII, but also available in Nation Designer.
# immortal_personality = {
#
# allow = {
# }
#
# chance = {
# modifier = {
# factor = -2
# }
# }
#
# immortal = 1 # dummy modifier only used to get the right icon
# nation_designer_cost = 800
# }