#vassal = {
#	first = TUR
#	second = HEJ
#	start_date = 1522.1.1
#	end_date = 1802.1.1
#}
#vassal = {
#	first = TUR
#	second = MAM
#	start_date = 1522.1.1
#	end_date = 1802.1.1
#}
march = {
	first = TUR
	second = ALG
	start_date = 1522.1.1
	end_date = 1802.1.1
}