namespace = internal_conflicts


# Internal Conflicts
country_event = {
	id = internal_conflicts.1
	title = "EVTNAME3001"
	desc = "EVTDESC3001"
	picture = PLAGUE_eventPicture
	
	major = yes
	
	is_triggered_only = yes
	
	#	mean_time_to_happen = {
	#		days = 1
	#	}
	
	immediate = {
		set_country_flag = had_internal_conflicts
	}
	
	option = {
		name = "EVTOPTA3001" # Dire times are ahead of us
		subtract_stability_1 = yes
	}
}

# Religious struggles
country_event = {
	id = internal_conflicts.2
	title = "EVTNAME3002"
	desc = "EVTDESC3002"
	picture = RELIGION_eventPicture
	
	trigger = {
		NOT = { has_country_modifier = religious_intolerance }
		NOT = { has_country_modifier = religious_tolerance }
		any_owned_province = {
			is_overseas = no
			has_owner_religion = no
		}
		is_at_war = yes
	}
	
	is_triggered_only = yes
	
	#	mean_time_to_happen = {
	#		days = 1
	#	}
	option = {
		name = "EVTOPTA3002"			# One nation, one belief!
		add_dip_power = -50
		add_country_modifier = {
			name = "religious_intolerance"
			duration = 3650
		}
	}
	option = {
		name = "EVTOPTB3002"			# Tolerate all beliefs
		add_adm_power = -50
		add_country_modifier = {
			name = "religious_tolerance"
			duration = 3650
		}
	}
}

# National instability
country_event = {
	id = internal_conflicts.3
	title = "EVTNAME3003"
	desc = "EVTDESC3003"
	picture = ANGRY_MOB_eventPicture
	
	trigger = {
		NOT = { stability = 0 }
		is_at_war = yes
		NOT = { had_country_flag = { flag = domestic_improvements days = 3650 } }
	}
	
	is_triggered_only = yes
	
	#	mean_time_to_happen = {
	#		days = 1
	#	}
	
	
	option = {
		name = "EVTOPTA3003"			# The war is our main concern
		every_owned_province = {
			limit = { is_capital = no }
			add_local_autonomy = 15
		}
	}
	option = {
		name = "EVTOPTB3003"			# Our domestic problems are our main concern
		add_adm_power = 50
		set_country_flag = domestic_improvements
	}
}

# Unrest among the peasants
country_event = {
	id = internal_conflicts.4
	title = "EVTNAME3004"
	desc = "EVTDESC3004"
	picture = ANGRY_MOB_eventPicture
	
	trigger = {
		NOT = { has_country_modifier = restrict_serfdom }
		NOT = { has_country_modifier = enforce_serfdom }
	}
	
	is_triggered_only = yes
	
	#	mean_time_to_happen = {
	#		days = 1
	#	}
	
	
	
	option = {
		name = "EVTOPTA3004"			# Restrict serfdom
		random_owned_province = {
			limit = {
				NOT = { has_province_modifier = nobles_organizing }
			}
			add_province_modifier = {
				name = "nobles_organizing"
				duration = 1825
			}
			hidden_effect = {
				set_variable = { which = added_unrest value = 5 }
				add_base_unrest = yes
			}
			custom_tooltip = added_unrest_5
		}
		add_country_modifier = {
			name = "restrict_serfdom"
			duration = -1
			desc = "END_OF_INTERNAL_CONFLICTS"
		}
	}
	option = {
		name = "EVTOPTB3004"			# Keep the masses in chains
		random_owned_province = {
			limit = {
				NOT = { has_province_modifier = peasants_organizing }
			}
			add_province_modifier = {
				name = "peasants_organizing"
				duration = 1825
			}
			hidden_effect = {
				set_variable = { which = added_unrest value = 5 }
				add_base_unrest = yes
			}
			custom_tooltip = added_unrest_5
		}
		add_country_modifier = {
			name = "enforce_serfdom"
			duration = -1
			desc = "END_OF_INTERNAL_CONFLICTS"
		}
	}
}

# War exhaustion
country_event = {
	id = internal_conflicts.5
	title = "EVTNAME3005"
	desc = "EVTDESC3005"
	picture = BATTLE_eventPicture
	
	
	trigger = {
		NOT = { has_country_modifier = decreased_morale }
		war_exhaustion = 10
	}
	
	
	is_triggered_only = yes
	
	#	mean_time_to_happen = {
	#		days = 1
	#	}
	
	
	option = {
		name = "EVTOPTA3005"			# There is no immediate solution at hand
		add_country_modifier = {
			name = "decreased_morale"
			duration = -1
			desc = "END_OF_INTERNAL_CONFLICTS"
		}
	}
	
	option = {
		name = "EVTOPTB3005"			# Let their voices be heard
		add_mil_power = -50
		add_yearly_manpower = -0.25
	}
}

# Inefficient ruler
country_event = {
	id = internal_conflicts.6
	title = "EVTNAME3006"
	desc = "EVTDESC3006"
	picture = BAD_WITH_MONARCH_eventPicture
	
	trigger = {
		NOT = { has_country_modifier = support_monarch }
		NOT = { has_country_modifier = oppose_monarch }
		OR = {
			NOT = { adm = 3 }
			NOT = { dip = 3 }
			NOT = { mil = 3 }
		}
		government = monarchy
		any_owned_province = { base_tax = 4 }
	}
	
	is_triggered_only = yes
	
	#	mean_time_to_happen = {
	#		days = 1
	#	}
	
	option = {
		name = "EVTOPTA3006"			# Leave the nation's fate in his hands
		random_owned_province = {
			limit = {
				base_tax = 4
				NOT = { has_province_modifier = pretender_organizing }
			}
			add_province_modifier = {
				name = "pretender_organizing"
				duration = 1825
			}
			hidden_effect = {
				set_variable = { which = added_unrest value = 5 }
				add_base_unrest = yes
			}
			custom_tooltip = added_unrest_5
		}
		random_owned_province = {
			limit = {
				base_tax = 4
				NOT = { has_province_modifier = pretender_organizing }
			}
			add_province_modifier = {
				name = "pretender_organizing"
				duration = 1825
			}
			hidden_effect = {
				set_variable = { which = added_unrest value = 5 }
				add_base_unrest = yes
			}
			custom_tooltip = added_unrest_5
		}
		random_owned_province = {
			limit = {
				base_tax = 4
				NOT = { has_province_modifier = pretender_organizing }
			}
			add_province_modifier = {
				name = "pretender_organizing"
				duration = 1825
			}
			hidden_effect = {
				set_variable = { which = added_unrest value = 5 }
				add_base_unrest = yes
			}
			custom_tooltip = added_unrest_5
		}
		add_country_modifier = {
			name = "support_monarch"
			duration = -1
			desc = "END_OF_INTERNAL_CONFLICTS"
		}
	}
	option = {
		name = "EVTOPTB3006"			# Oppose him
		random_owned_province = {
			limit = {
				base_tax = 4
				NOT = { has_province_modifier = nobles_organizing }
			}
			add_province_modifier = {
				name = "nobles_organizing"
				duration = 1825
			}
			hidden_effect = {
				set_variable = { which = added_unrest value = 5 }
				add_base_unrest = yes
			}
			custom_tooltip = added_unrest_5
		}
		random_owned_province = {
			limit = {
				base_tax = 4
				NOT = { has_province_modifier = nobles_organizing }
			}
			add_province_modifier = {
				name = "nobles_organizing"
				duration = 1825
			}
			hidden_effect = {
				set_variable = { which = added_unrest value = 5 }
				add_base_unrest = yes
			}
			custom_tooltip = added_unrest_5
		}
		random_owned_province = {
			limit = {
				base_tax = 4
				NOT = { has_province_modifier = nobles_organizing }
			}
			add_province_modifier = {
				name = "nobles_organizing"
				duration = 1825
			}
			hidden_effect = {
				set_variable = { which = added_unrest value = 5 }
				add_base_unrest = yes
			}
			custom_tooltip = added_unrest_5
		}
		random_owned_province = {
			limit = {
				base_tax = 4
				NOT = { has_province_modifier = nobles_organizing }
			}
			add_province_modifier = {
				name = "nobles_organizing"
				duration = 1825
			}
			hidden_effect = {
				set_variable = { which = added_unrest value = 5 }
				add_base_unrest = yes
			}
			custom_tooltip = added_unrest_5
		}
		random_owned_province = {
			limit = {
				base_tax = 4
				NOT = { has_province_modifier = nobles_organizing }
			}
			add_province_modifier = {
				name = "nobles_organizing"
				duration = 1825
			}
			hidden_effect = {
				set_variable = { which = added_unrest value = 5 }
				add_base_unrest = yes
			}
			custom_tooltip = added_unrest_5
		}
		add_country_modifier = {
			name = "oppose_monarch"
			duration = -1
			desc = "END_OF_INTERNAL_CONFLICTS"
		}
	}
}


# Stability returns
country_event = {
	id = internal_conflicts.8
	title = "EVTNAME3008"
	desc = "EVTDESC3008"
	picture = CIVIL_WAR_eventPicture
	
	
	is_triggered_only = yes
	
	#	mean_time_to_happen = {
	#		days = 1
	#	}
	major = yes
	
	
	
	option = {
		name = "EVTOPTA3008"			# Restore order
		add_stability_1 = yes
		remove_country_modifier = "restrict_serfdom"
		remove_country_modifier = "enforce_serfdom"
		remove_country_modifier = "decreased_morale"
		remove_country_modifier = "disarmament"
		remove_country_modifier = "support_monarch"
		remove_country_modifier = "oppose_monarch"
		remove_country_modifier = "alleviate_population"
		remove_country_modifier = "starvation"
	}
}
