#kalmar - Bastiram

#1-20 reserved for Kalmar formation
#21-50 are reserved for Kalmar Events
#21-30 are for random events regarding modifiers

#marriageforHåkon

country_event = {
	id = kalmar.001
	title = kalmar.001.t
	desc = kalmar.001.d
	picture = DIPLOMACY_eventPicture
	
	#hidden = yes
	fire_only_once = yes
	
	trigger = {
		tag = NOR
		is_year = 1362
		is_lesser_in_union = no
	}
	
	mean_time_to_happen = { months = 5 }
	
	option = {
		name = kalmar.001.a
		ai_chance = { factor = 95 }
		add_prestige = 5
		DEN = { country_event = { id = kalmar.002 days = 30 random = 15 } }
	}
	option = {
		name = kalmar.001.b
		ai_chance = { factor = 5 }
		add_legitimacy = 5
	}
}

#Danish answer
country_event = {
	id = kalmar.002
	title = kalmar.002.t
	desc = kalmar.002.d
	picture = DIPLOMACY_eventPicture
	
	#hidden = yes
	fire_only_once = yes
	is_triggered_only = yes
	
	trigger = {
		tag = DEN
	}
	option = {
		name = kalmar.002.a
		ai_chance = { factor = 95 }
		# country_event = { id = kalmar.003 days = 3 }
		create_marriage = FROM
		hidden_effect = {
			add_ruler_modifier = {
				name = impotent
				duration = -1
				hidden = yes
			}
			NOR = { set_country_flag = crown_promised_to_denmark }
		}
	}
	option = {
		name = kalmar.002.b
		ai_chance = { factor = 5 }
	}
}

#Death of Danish heir.
country_event = {
	id = kalmar.003
	title = kalmar.003.t
	desc = kalmar.003.d
	picture = DEATH_OF_HEIR_eventPicture
	
	#hidden = yes
	fire_only_once = yes
	
	trigger = {
		tag = DEN
		heir_age = 22
		dynasty = Estrid
	}
	
	mean_time_to_happen = {
		years = 5
		modifier = {
			factor = 0.5
			has_ruler_modifier = impotent
		}
	}
	
	immediate = {
		hidden_effect = {
			kill_heir = yes
			country_event = { id = kalmar.004 days = 3000 }
		}
	}
	
	option = {
		name = kalmar.003.a
	}
}

#Danish heir dies forcing Denmark to choose between Ingeborg's or Margrethe's son as heir.
country_event = {
	id = kalmar.004
	title = kalmar.004.t
	desc = kalmar.004.d
	picture = DEATH_OF_HEIR_eventPicture
	
	#hidden = yes
	fire_only_once = yes
	is_triggered_only = yes
	
	
	option = {
		name = kalmar.004.a
		ai_chance = { factor = 95 }
		define_heir = {
			name = "Oluf"
			dynasty = "Birger"
			birth_date = 1370.1.1
			claim = 100
		}
		country_event = { id = kalmar.005 days = 1800 }
		set_country_flag = oluf_picked
	}
	
	option = {
		name = kalmar.004.b
		ai_chance = { factor = 5 }
		define_heir = {
			name = "Albert"
			birth_date = 1362.1.1
			dynasty = "von Mecklenburg"
			claim = 100
		}
	}
}

#Death of Valdemar if Oluf was chosen. it needs to happen in 1375 Margreth on the Danish throne.

country_event = {
	id = kalmar.005
	title = kalmar.005.t
	desc = kalmar.005.d
	picture = GOOD_WITH_MONARCH_eventPicture
	
	#hidden = yes
	fire_only_once = yes
	is_triggered_only = yes
	
	trigger = {
		tag = DEN
		has_country_flag = oluf_picked
		is_lesser_in_union = no
		NOT = { had_country_flag = { flag = oluf_picked days = 5000 } }
		NOT = { has_country_flag = margarethe_regent }
	}
	
	
	option = {
		name = kalmar.005.a
		define_ruler = {
			name = "Margrethe"
			#birth_date = 1353
			dynasty = "Estrid"
			claim = 100
			female = yes
			adm = 6 #need to be decided
			dip = 6
			mil = 6 #need to be decided
		}
		
		define_heir = {
			name = "Oluf"
			birth_date = 1370.1.1
			dynasty = "Birger"
			claim = 100
		}
		country_event = { id = kalmar.007 days = 2160 }
		set_country_flag = margarethe_regent
	}
}

#Death of Håkon needs to happen in 1380

country_event = {
	id = kalmar.006
	title = kalmar.006.t
	desc = kalmar.006.d
	picture = KING_SICK_IN_BED_eventPicture
	
	#hidden = yes
	fire_only_once = yes
	is_triggered_only = yes
	
	trigger = {
		tag = NOR
		is_subject_other_than_tributary_trigger = no
		DEN = { is_lesser_in_union = no }
		has_country_flag = crown_promised_to_denmark
	}
	
	option = {
		name = kalmar.006.a
		clr_country_flag = crown_promised_to_denmark
		DEN = {
			create_union = NOR
			set_country_flag = kalmar_nor
		}
		# Personal union between Denmark and norway ( Denmark the major partner)
	}
}


#death of Oluf needs to happen in 1387

country_event = {
	id = kalmar.007
	title = kalmar.007.t
	desc = kalmar.007.d
	picture = ASSASSINATION_eventPicture
	
	#hidden = yes
	fire_only_once = yes
	is_triggered_only = yes
	
	trigger = {
		tag = DEN
		is_lesser_in_union = no
	}
	option = {
		name = kalmar.007.a
		kill_heir = yes
		country_event = { id = kalmar.011 days = 3 }
	}
}


#Swedish assassination offer

country_event = {
	id = kalmar.008
	title = kalmar.008.t
	desc = kalmar.008.d
	picture = ASSASSINATION_eventPicture
	
	#hidden = yes
	fire_only_once = yes
	
	trigger = {
		tag = SWE
		exists = RSW
		is_year = 1362
	}
	
	mean_time_to_happen = { months = 5 }
	
	option = {
		name = kalmar.008.a
		ai_chance = { factor = 70 }
		add_treasury = -60
		country_event = { id = kalmar.009 days = 3 }
	}
	option = {
		name = "kalmar.008.b"
		ai_chance = { factor = 30 }
	}
}

#Attempt on Sveriges king.

country_event = {
	id = kalmar.009
	title = kalmar.009.t
	desc = kalmar.009.d
	picture = ASSASSINATION_eventPicture
	
	#hidden = yes
	fire_only_once = yes
	is_triggered_only = yes
	
	trigger = {
		tag = RSW
	}
	
	option = {
		name = kalmar.009.a
		random_list = {
			50 = {
				kill_ruler = yes
			}
			50 = {
				#nothing
			}
		}
	}
}


#disposal of Magnus bjelbo.

country_event = {
	id = kalmar.010
	title = kalmar.010.t
	desc = kalmar.010.d
	picture = DEBATE_REPUBLICAN_eventPicture
	
	#hidden = yes
	fire_only_once = yes
	
	trigger = {
		tag = SWE
		is_year = 1364
	}
	
	mean_time_to_happen = { months = 5 }
	
	option = {
		name = kalmar.010.a
		ai_chance = { factor = 95 }
		kill_ruler = yes
		
		define_ruler = {
			name = "Albrecht"
			#birth_date = 1333
			dynasty = "von Mecklenburg"
			claim = 80
		}
		random_list = {
			10 = { country_event = { id = kalmar.012 days = 5475 } } # 15 years
			20 = { country_event = { id = kalmar.012 days = 7300 } } # 20 years
			40 = { country_event = { id = kalmar.012 days = 9125 } } # 25 years
			20 = { country_event = { id = kalmar.012 days = 10950 } } # 30 years
			10 = { country_event = { id = kalmar.012 days = 12775 } } # 35 years
		}
	}
	option = {
		name = kalmar.010.b
		ai_chance = { factor = 5 }
		add_legitimacy = 5
	}
}

#Denmark chooses new heir after Oluf's death.

country_event = {
	id = kalmar.011
	title = kalmar.011.t
	desc = kalmar.011.d
	picture = CONQUEST_eventPicture
	
	#hidden = yes
	fire_only_once = yes
	is_triggered_only = yes
	
	trigger = {
		tag = DEN
	}
	
	option = {
		name = kalmar.011.a
		ai_chance = { factor = 95 }
		define_heir = {
			name = Erik
			birth_date = 1382.1.1
			dynasty = "Gryf"
			claim = 100
		}
	}
	option = {
		name = kalmar.011.b
		ai_chance = { factor = 5 }
		define_heir = {
			dynasty = "von Oldenburg"
			claim = 100
		}
	}
}

#Swedish nobles offer the Swedish throne to Margrethe 1389

country_event = {
	id = kalmar.012
	title = kalmar.012.t
	desc = kalmar.012.d
	picture = ACCUSATION_eventPicture
	
	#hidden = yes
	fire_only_once = yes
	is_triggered_only = yes
	
	trigger = {
		tag = SWE
		is_lesser_in_union = no
		DEN = { is_lesser_in_union = no }
	}
	option = {
		name = kalmar.012.a
		DEN = { country_event = { id = kalmar.013 days = 92 } }
		ai_chance = { factor = 95 }
	}
	option = {
		name = kalmar.012.b
		ai_chance = { factor = 5 }
	}
}

#Margrethe Answers the Swedish offer

country_event = {
	id = kalmar.013
	title = kalmar.013.t
	desc = kalmar.013.d
	picture = DIPLOMACY_eventPicture
	
	#hidden = yes
	fire_only_once = yes
	is_triggered_only = yes
	
	trigger = {
		tag = DEN
	}
	option = {
		name = kalmar.013.a
		SWE = { country_event = { id = kalmar.014 days = 90 } }
		ai_chance = { factor = 95 }
	}
	option = {
		name = kalmar.013.b
		ai_chance = { factor = 5 }
	}
}

#Sweden recieves Margrethes answer.

country_event = {
	id = kalmar.014
	title = kalmar.014.t
	desc = kalmar.014.d
	picture = BIG_BOOK_eventPicture
	
	#hidden = yes
	fire_only_once = yes
	is_triggered_only = yes
	
	trigger = {
		tag = SWE
		is_subject_other_than_tributary_trigger = no
		DEN = { is_lesser_in_union = no }
	}
	
	option = {
		name = kalmar.014.a
		DEN = {
			create_union = SWE
			set_country_flag = kalmar_swe
		}
		# Personal union between Denmark and Sweden ( Denmark the major partner)
	}
}


#Kalmar signing 1397
country_event = {
	id = kalmar.015
	title = kalmar.015.t
	desc = kalmar.015.d
	picture = BIG_BOOK_eventPicture
	
	#hidden = yes
	fire_only_once = yes
	
	trigger = {
		OR = {
			AND = {
				tag = DEN
				senior_union_with = NOR
				had_country_flag = { flag = kalmar_nor days = 7300 }
				senior_union_with = SWE
				had_country_flag = { flag = kalmar_swe days = 7300 }
			}
			AND = {
				tag = NOR
				senior_union_with = DEN
				senior_union_with = SWE
			}
			AND = {
				tag = SWE
				senior_union_with = NOR
				senior_union_with = DEN
			}
		}
		absolutism = 70
	}
	
	mean_time_to_happen = { years = 10 }
	
	
	option = {
		name = kalmar.015.a
		#Denmark becomes Kalmar tag, inherits Norway and Sweden.
		set_country_flag = kalmar_signed
		inherit = SWE
		inherit = NOR
		scandinavia_region = { limit = { owned_by = ROOT } remove_core = KAL add_core = KAL }
		scandinavia_region = { limit = { NOT = { owned_by = ROOT } } add_permanent_claim = KAL }
		danish_region = { limit = { owned_by = ROOT } remove_core = KAL add_core = KAL }
		danish_region = { limit = { NOT = { owned_by = ROOT } } add_permanent_claim = KAL }
		norwegian_region = { limit = { owned_by = ROOT } remove_core = KAL add_core = KAL }
		norwegian_region = { limit = { NOT = { owned_by = ROOT } } add_permanent_claim = KAL }
		finland_region = { limit = { owned_by = ROOT } remove_core = KAL add_core = KAL }
		finland_region = { limit = { NOT = { owned_by = ROOT } } add_permanent_claim = KAL }
		add_accepted_culture = norwegian
		add_accepted_culture = swedish
		add_accepted_culture = finnish
		change_tag = KAL
		add_absolutism = 10
		if = {
			limit = {
				has_custom_ideas = no
				NOT = { has_idea_group = SCA_ideas }
			}
			swap_national_ideas_effect = yes
		}
		every_owned_province = {
			limit = {
				region = scandinavia_region
			}
			add_permanent_province_modifier = {
				name = absolute_swedish_autonomy
				duration = -1
			}
		}
		every_owned_province = {
			limit = {
				region = norwegian_region
				NOT = { area = subarctic_islands_area }
			}
			add_permanent_province_modifier = {
				name = absolute_norwegian_autonomy
				duration = -1
			}
		}
	}
}

#Death of Margrethe 1412. instead of a fixed date this should ideally just be when Margrethe dies naturally.

country_event = {
	id = kalmar.016
	title = kalmar.016.t
	desc = kalmar.016.d
	picture = LIBERUM_VETO_eventPicture
	
	#hidden = yes
	fire_only_once = yes
	is_triggered_only = yes
	
	trigger = {
		has_country_flag = kalmar_signed
	}
	option = {
		name = "kalmar.016.a"
		clr_country_flag = kalmar_signed
	}
}
