########################################
# Major Flavor Events                  #
########################################


# The Imperial Parliament at Augsburg
country_event = {
	id = flavor_hab.3188
	title = "flavor_hab.EVTNAME3188"
	desc = "flavor_hab.EVTDESC3188"
	picture = HRE_eventPicture
	
	trigger = {
		tag = HAB
		is_emperor = yes
		is_year = 1550
		NOT = { is_year = 1650 }
		NOT = { has_country_flag = HAB_had_event_3188 }
		is_religion_enabled = protestant
		any_country = {
			is_part_of_hre = yes
			religion = protestant
		}
		any_country = {
			is_part_of_hre = yes
			religion = catholic
		}
	}
	
	mean_time_to_happen = {
		years = 166
		modifier = {
			factor = 0.75
			religion = catholic
		}
	}
	
	immediate = {
		set_country_flag = HAB_had_event_3188
	}
	
	option = {			# Find a middle ground
		name = "flavor_hab.EVTOPTA3188"
		ai_chance = {
			factor = 50
		}
		add_prestige = -20
		every_country = {
			limit = {
				is_part_of_hre = yes
			}
			add_opinion = {
				who = ROOT
				modifier = religious_compromise
			}
		}
	}
	option = {			# Support Catholics
		name = "flavor_hab.EVTOPTB3188"
		ai_chance = {
			factor = 25
			modifier = {
				factor = 0
				religion = protestant
			}
		}
		every_country = {
			limit = {
				is_part_of_hre = yes
				religion = catholic
			}
			add_opinion = {
				who = ROOT
				modifier = favors_catholics_catholics
			}
		}
		every_country = {
			limit = {
				is_part_of_hre = yes
				religion = protestant
			}
			add_opinion = {
				who = ROOT
				modifier = favors_catholics_protestants
			}
		}
	}
	option = {			# Support Protestants
		name = "flavor_hab.EVTOPTC3188"
		ai_chance = {
			factor = 25
			modifier = {
				factor = 0
				religion = catholic
			}
		}
		add_papal_influence = -50
		every_country = {
			limit = {
				is_part_of_hre = yes
				religion = protestant
			}
			add_opinion = {
				who = ROOT
				modifier = favors_protestants_protestants
			}
		}
		every_country = {
			limit = {
				is_part_of_hre = yes
				religion = catholic
			}
			add_opinion = {
				who = ROOT
				modifier = favors_protestants_catholics
			}
		}
	}
}

# The Royal Letter of Bohemia
country_event = {
	id = flavor_hab.3193
	title = "flavor_hab.EVTNAME3193"
	desc = "flavor_hab.EVTDESC3193"
	picture = REFORM_eventPicture
	
	trigger = {
		tag = HAB
		is_emperor = yes
		is_year = 1600
		NOT = { is_year = 1650 }
		NOT = { has_country_flag = HAB_had_event_3193 }
		NOT = { has_country_flag = HAB_had_event_3194 }
		is_religion_enabled = protestant
		BOH = {
			exists = yes
			religion = protestant
			junior_union_with = HAB
		}
	}
	
	mean_time_to_happen = {
		years = 50
		modifier = {
			factor = 0.75
			dynasty = "von Habsburg"
		}
	}
	
	immediate = {
		set_country_flag = HAB_had_event_3193
	}
	
	option = {		# Issue it
		name = "flavor_hab.EVTOPTA3193"
		set_country_flag = royal_letter_of_bohemia
		BOH = {
			add_opinion = {
				who = ROOT
				modifier = royal_letter_of_bohemia
			}
		}
	}
	option = {		# Do not issue it
		name = "flavor_hab.EVTOPTB3193"
		set_country_flag = refused_royal_letter_of_bohemia
		BOH = {
			add_opinion = {
				who = ROOT
				modifier = refused_royal_letter_of_bohemia
			}
		}
	}
}

# The Defenstration of Prague
country_event = {
	id = flavor_hab.3194
	title = "flavor_hab.EVTNAME3194"
	desc = "flavor_hab.EVTDESC3194"
	picture = LIBERUM_VETO_eventPicture
	
	trigger = {
		tag = HAB
		is_emperor = yes
		is_year = 1600
		NOT = { is_year = 1650 }
		NOT = { has_country_flag = HAB_had_event_3194 }
		NOT = { has_country_flag = royal_letter_of_bohemia }
		religion = catholic
		is_religion_enabled = protestant
		OR = {
			AND = {
				NOT = { senior_union_with = BOH }
				268 = {	# Bohemia
					owned_by = ROOT
					religion = protestant
				}
			}
			BOH = {
				exists = yes
				religion = protestant
				junior_union_with = HAB
			}
		}
	}
	
	mean_time_to_happen = {
		years = 83
		modifier = {
			factor = 0.75
			dynasty = "von Habsburg"
		}
		modifier = {
			factor = 0.25
			has_country_flag = refused_royal_letter_of_bohemia
		}
	}
	
	immediate = {
		set_country_flag = HAB_had_event_3194
	}
	
	option = {		# Not good at all
		name = "flavor_hab.EVTOPTA3194"
		if = {
			limit = {
				senior_union_with = BOH
			}
			break_union = BOH
		}
		if = {
			limit = {
				NOT = { senior_union_with = BOH }
				268 = {	# Bohemia
					owned_by = ROOT
					religion = protestant
				}
			}
			268 = {
				add_province_modifier = {
					name = "nationalists_organizing"
					duration = 5475
				}
				hidden_effect = {
					set_variable = { which = added_unrest value = 15 }
					add_base_unrest = yes
				}
				custom_tooltip = added_unrest_15
			}
		}
	}
}

# Peasant Revolt in Austria
country_event = {
	id = flavor_hab.3195
	title = "flavor_hab.EVTNAME3195"
	desc = "flavor_hab.EVTDESC3195"
	picture = ANGRY_MOB_eventPicture
	
	trigger = {
		tag = HAB
		is_year = 1600
		NOT = { is_year = 1650 }
		NOT = { has_country_flag = HAB_had_event_3195 }
		religion = catholic
		any_owned_province = {
			region = austrian_circle_region
			religion = protestant
		}
	}
	
	mean_time_to_happen = { years = 83 }
	
	immediate = {
		set_country_flag = HAB_had_event_3195
	}
	
	option = {		# They must be crushed
		name = "flavor_hab.EVTOPTA3195"
		random_list = {
			30 = {}
			40 = {
				subtract_stability_points_50 = yes
			}
			30 = {
				subtract_stability_1 = yes
			}
		}
		random_owned_province = {
			limit = {
				region = austrian_circle_region
				religion = protestant
				NOT = { has_province_modifier = peasants_organizing }
			}
			add_province_modifier = {
				name = "peasants_organizing"
				duration = 1825
			}
			hidden_effect = {
				set_variable = { which = added_unrest value = 5 }
				add_base_unrest = yes
			}
			custom_tooltip = added_unrest_5
		}
		random_owned_province = {
			limit = {
				region = austrian_circle_region
				religion = protestant
				NOT = { has_province_modifier = peasants_organizing }
			}
			add_province_modifier = {
				name = "peasants_organizing"
				duration = 1825
			}
			hidden_effect = {
				set_variable = { which = added_unrest value = 5 }
				add_base_unrest = yes
			}
			custom_tooltip = added_unrest_5
		}
		random_owned_province = {
			limit = {
				region = austrian_circle_region
				religion = protestant
				NOT = { has_province_modifier = peasants_organizing }
			}
			add_province_modifier = {
				name = "peasants_organizing"
				duration = 1825
			}
			hidden_effect = {
				set_variable = { which = added_unrest value = 5 }
				add_base_unrest = yes
			}
			custom_tooltip = added_unrest_5
		}
	}
}

# Noble Revolt in Hungary
country_event = {
	id = flavor_hab.3201
	title = "flavor_hab.EVTNAME3201"
	desc = "flavor_hab.EVTDESC3201"
	picture = ANGRY_MOB_eventPicture
	
	trigger = {
		tag = HAB
		is_year = 1550
		NOT = { is_year = 1750 }
		NOT = { has_country_flag = HAB_had_event_3201 }
		NOT = { exists = HUN }
		any_owned_province = {
			OR = { region = magyar_plains_region region = north_carpathia_region }
		}
	}
	
	mean_time_to_happen = { years = 333 }
	
	immediate = {
		set_country_flag = HAB_had_event_3201
		random_owned_province = {
			limit = {
				OR = { region = magyar_plains_region region = north_carpathia_region }
			}
			set_province_flag = hungarian_revolt
		}
	}
	
	option = {		# They should learn their place
		name = "flavor_hab.EVTOPTA3201"
		random_owned_province = {
			limit = {
				has_province_flag = hungarian_revolt
				NOT = { has_province_modifier = nobles_organizing }
			}
			add_province_modifier = {
				name = "nobles_organizing"
				duration = 1825
			}
			hidden_effect = {
				set_variable = { which = added_unrest value = 5 }
				add_base_unrest = yes
			}
			custom_tooltip = added_unrest_5
			clr_province_flag = hungarian_revolt
		}
		random_owned_province = {
			limit = {
				has_province_flag = hungarian_revolt
				NOT = { has_province_modifier = nobles_organizing }
			}
			add_province_modifier = {
				name = "nobles_organizing"
				duration = 1825
			}
			hidden_effect = {
				set_variable = { which = added_unrest value = 5 }
				add_base_unrest = yes
			}
			custom_tooltip = added_unrest_5
			clr_province_flag = hungarian_revolt
		}
		random_owned_province = {
			limit = {
				has_province_flag = hungarian_revolt
				NOT = { has_province_modifier = nobles_organizing }
			}
			add_province_modifier = {
				name = "nobles_organizing"
				duration = 1825
			}
			hidden_effect = {
				set_variable = { which = added_unrest value = 5 }
				add_base_unrest = yes
			}
			custom_tooltip = added_unrest_5
			clr_province_flag = hungarian_revolt
		}
	}
	option = {		# Give more concessions
		name = "flavor_hab.EVTOPTB3201"
		random_owned_province = {
			limit = {
				has_province_flag = hungarian_revolt
			}
			add_province_modifier = {
				name = local_autonomy_modifier
				duration = 3650
			}
			clr_province_flag = hungarian_revolt
		}
	}
}

# The Purge of the Archbishop of Salzburg
country_event = {
	id = flavor_hab.3203
	title = "flavor_hab.EVTNAME3203"
	desc = "flavor_hab.EVTDESC3203"
	picture = ANGRY_MOB_eventPicture
	
	trigger = {
		tag = HAB
		owns = 76 # Salzburg
		is_year = 1700
		NOT = { is_year = 1800 }
		NOT = { has_country_flag = HAB_had_event_3203 }
		NOT = { exists = SLZ }
		76 = {
			religion = catholic
		}
	}
	
	mean_time_to_happen = { years = 166 }
	
	immediate = {
		set_country_flag = HAB_had_event_3203
	}
	
	option = {		# Let the Archbishop Purge the Protestants
		name = "flavor_hab.EVTOPTA3203"
		add_stability_1 = yes
		76 = {
			# add_base_tax = -1
			# add_base_production = -1
		}
	}
	option = {		# Stop the Archbishop's Purge
		name = "flavor_hab.EVTOPTB3203"
		random_list = {
			30 = {}
			40 = {
				subtract_stability_points_50 = yes
			}
			30 = {
				subtract_stability_1 = yes
			}
		}
	}
}

# Wenzel Anton Kaunitz
country_event = {
	id = flavor_hab.3202
	title = "flavor_hab.EVTNAME3206"
	desc = "flavor_hab.EVTDESC3206"
	picture = ADVISOR_eventPicture
	
	trigger = {
		tag = HAB
		is_year = 1741
		NOT = { is_year = 1794 }
		NOT = { has_country_flag = HAB_had_event_3206 }
		NOT = { advisor_exists = 192 }
	}
	
	mean_time_to_happen = { years = 25 }
	
	immediate = {
		set_country_flag = HAB_had_event_3206
	}
	
	option = {			# An Excellent Minister!
		name = "EXCELLENTCMNISTER"
		add_adm_power = 25
		define_advisor = {
			type = statesman
			name = "Wenzel Anton Kaunitz"
			skill = 3
			discount = yes
		}
	}
}

# Metternich
country_event = {
	id = flavor_hab.3208
	title = "flavor_hab.EVTNAME3208"
	desc = "flavor_hab.EVTDESC3208"
	picture = ADVISOR_eventPicture
	
	trigger = {
		tag = HAB
		is_year = 1803
		NOT = { is_year = 1859 }
		NOT = { has_country_flag = HAB_had_event_3208 }
		NOT = { advisor_exists = 214 }
	}
	
	mean_time_to_happen = { years = 25 }
	
	immediate = {
		set_country_flag = HAB_had_event_3208
	}
	
	option = {			# An Excellent Minister!
		name = "EXCELLENTCMNISTER"
		add_adm_power = 25
		define_advisor = {
			type = diplomat
			name = "Metternich"
			skill = 3
			discount = yes
		}
	}
}

# The Protestant Rebellion in Hungary
country_event = {
	id = flavor_hab.3099
	title = "flavor_hab.EVTNAME3099"
	desc = "flavor_hab.EVTDESC3099"
	picture = ANGRY_MOB_eventPicture
	
	trigger = {
		tag = HAB
		is_year = 1575
		NOT = { is_year = 1625 }
		NOT = { has_country_flag = HAB_had_event_3099 }
		NOT = { exists = HUN }
		any_owned_province = {
			OR = { region = magyar_plains_region region = north_carpathia_region }
			religion = protestant
		}
	}
	
	mean_time_to_happen = { years = 83 }
	
	immediate = {
		hidden_effect = {
			set_country_flag = HAB_had_event_3099
			random_owned_province = {
				limit = {
					OR = { region = magyar_plains_region region = north_carpathia_region }
					religion = protestant
				}
				set_province_flag = hungarian_revolt
			}
			random_owned_province = {
				limit = {
					OR = { region = magyar_plains_region region = north_carpathia_region }
					religion = protestant
					NOT = { has_province_flag = second_hungarian_revolt }
				}
				set_province_flag = second_hungarian_revolt
			}
		}
	}
	
	option = {		# Crush the Heretics
		name = "flavor_hab.EVTOPTA3099"
		random_owned_province = {
			limit = {
				has_province_flag = hungarian_revolt
				NOT = { has_province_modifier = nobles_organizing }
			}
			add_province_modifier = {
				name = "nobles_organizing"
				duration = 1825
			}
			hidden_effect = {
				set_variable = { which = added_unrest value = 5 }
				add_base_unrest = yes
			}
			custom_tooltip = added_unrest_5
			clr_province_flag = hungarian_revolt
		}
		random_owned_province = {
			limit = {
				has_province_flag = hungarian_revolt
				NOT = { has_province_modifier = nobles_organizing }
			}
			add_province_modifier = {
				name = "nobles_organizing"
				duration = 1825
			}
			hidden_effect = {
				set_variable = { which = added_unrest value = 5 }
				add_base_unrest = yes
			}
			custom_tooltip = added_unrest_5
			clr_province_flag = hungarian_revolt
		}
		random_owned_province = {
			limit = {
				has_province_flag = hungarian_revolt
				NOT = { has_province_modifier = nobles_organizing }
			}
			add_province_modifier = {
				name = "nobles_organizing"
				duration = 1825
			}
			hidden_effect = {
				set_variable = { which = added_unrest value = 5 }
				add_base_unrest = yes
			}
			custom_tooltip = added_unrest_5
			clr_province_flag = hungarian_revolt
		}
		random_owned_province = {
			limit = {
				has_province_flag = second_hungarian_revolt
				NOT = { has_province_modifier = nobles_organizing }
			}
			add_province_modifier = {
				name = "nobles_organizing"
				duration = 1825
			}
			hidden_effect = {
				set_variable = { which = added_unrest value = 5 }
				add_base_unrest = yes
			}
			custom_tooltip = added_unrest_5
			clr_province_flag = second_hungarian_revolt
		}
		random_owned_province = {
			limit = {
				has_province_flag = second_hungarian_revolt
				NOT = { has_province_modifier = nobles_organizing }
			}
			add_province_modifier = {
				name = "nobles_organizing"
				duration = 1825
			}
			hidden_effect = {
				set_variable = { which = added_unrest value = 5 }
				add_base_unrest = yes
			}
			custom_tooltip = added_unrest_5
			clr_province_flag = second_hungarian_revolt
		}
	}
	option = {		# Give concessions
		name = "flavor_hab.EVTOPTB3099"
		random_owned_province = {
			limit = {
				has_province_flag = hungarian_revolt
			}
			add_province_modifier = {
				name = local_autonomy_modifier
				duration = 3650
			}
			clr_province_flag = hungarian_revolt
		}
		random_owned_province = {
			limit = {
				has_province_flag = second_hungarian_revolt
			}
			add_province_modifier = {
				name = local_autonomy_modifier
				duration = 3650
			}
			clr_province_flag = second_hungarian_revolt
		}
	}
}

# The Enlightened Reforms of Joseph II
country_event = {
	id = flavor_hab.3216
	title = "flavor_hab.EVTNAME3216"
	desc = "flavor_hab.EVTDESC3216"
	picture = REFORM_eventPicture
	
	trigger = {
		tag = HAB
		is_year = 1750
		NOT = { is_year = 1800 }
		NOT = { has_country_flag = HAB_had_event_3216 }
	}
	
	mean_time_to_happen = { years = 83 }
	
	immediate = {
		set_country_flag = HAB_had_event_3216
	}
	
	option = {		# Reforms of Enlightenment
		name = "flavor_hab.EVTOPTA3216"
		add_adm_power = 100
		random_owned_province = {
			limit = {
				NOT = { has_province_modifier = nobles_organizing }
			}
			add_province_modifier = {
				name = "nobles_organizing"
				duration = 1825
			}
			hidden_effect = {
				set_variable = { which = added_unrest value = 5 }
				add_base_unrest = yes
			}
			custom_tooltip = added_unrest_5
		}
		random_owned_province = {
			limit = {
				NOT = { has_province_modifier = nobles_organizing }
			}
			add_province_modifier = {
				name = "nobles_organizing"
				duration = 1825
			}
			hidden_effect = {
				set_variable = { which = added_unrest value = 5 }
				add_base_unrest = yes
			}
			custom_tooltip = added_unrest_5
		}
	}
	option = {		# No Change
		name = "flavor_hab.EVTOPTB3216"
		random_list = {
			30 = {}
			40 = {
				subtract_stability_points_50 = yes
			}
			30 = {
				subtract_stability_1 = yes
			}
		}
	}
}

# Reichshofrat
country_event = {
	id = flavor_hab.3328
	title = "flavor_hab.EVTNAME3328"
	desc = "flavor_hab.EVTDESC3328"
	picture = DEBATE_REPUBLICAN_eventPicture
	
	trigger = {
		tag = HAB
		is_year = 1480
		NOT = { is_year = 1530 }
		NOT = { has_country_flag = HAB_had_event_3328 }
	}
	
	mean_time_to_happen = { years = 83 }
	
	immediate = {
		set_country_flag = HAB_had_event_3328
	}
	
	option = {		# Create this new council
		name = "flavor_hab.EVTOPTA3328"
		random_list = {
			30 = {}
			40 = {
				subtract_stability_points_50 = yes
			}
			30 = {
				subtract_stability_1 = yes
			}
		}
		add_country_modifier = {
			name = reichshofrat
			duration = 7300
		}
	}
	option = {		# Let the Nobility run these modane things
		name = "flavor_hab.EVTOPTB3328"
		add_stability_1 = yes
	}
}

# The Chastening of Hungary
country_event = {
	id = flavor_hab.3332
	title = "flavor_hab.EVTNAME3332"
	desc = "flavor_hab.EVTDESC3332"
	picture = DEBATE_REPUBLICAN_eventPicture
	
	trigger = {
		tag = HAB
		is_year = 1650
		NOT = { is_year = 1700 }
		NOT = { has_country_flag = HAB_had_event_3332 }
		NOT = { exists = HUN }
		any_owned_province = {
			OR = { region = magyar_plains_region region = north_carpathia_region }
		}
		TUR = {
			any_owned_province = {
				OR = { region = magyar_plains_region region = north_carpathia_region }
			}
		}
	}
	
	mean_time_to_happen = { years = 83 }
	
	immediate = {
		hidden_effect = {
			set_country_flag = HAB_had_event_3332
			random_owned_province = {
				limit = {
					OR = { region = magyar_plains_region region = north_carpathia_region }
				}
				set_province_flag = hungarian_revolt
			}
		}
	}
	
	option = {		# Centralized Administration from our capital
		name = "flavor_hab.EVTOPTA3332"
		random_list = {
			30 = {}
			40 = {
				subtract_stability_points_50 = yes
			}
			30 = {
				subtract_stability_1 = yes
			}
		}
		random_owned_province = {
			limit = {
				has_province_flag = hungarian_revolt
				NOT = { has_province_modifier = nobles_organizing }
			}
			add_province_modifier = {
				name = "nobles_organizing"
				duration = 1825
			}
			hidden_effect = {
				set_variable = { which = added_unrest value = 5 }
				add_base_unrest = yes
			}
			custom_tooltip = added_unrest_5
			clr_province_flag = hungarian_revolt
		}
		random_owned_province = {
			limit = {
				has_province_flag = hungarian_revolt
				NOT = { has_province_modifier = nobles_organizing }
			}
			add_province_modifier = {
				name = "nobles_organizing"
				duration = 1825
			}
			hidden_effect = {
				set_variable = { which = added_unrest value = 5 }
				add_base_unrest = yes
			}
			custom_tooltip = added_unrest_5
			clr_province_flag = hungarian_revolt
		}
		random_owned_province = {
			limit = {
				has_province_flag = hungarian_revolt
				NOT = { has_province_modifier = nobles_organizing }
			}
			add_province_modifier = {
				name = "nobles_organizing"
				duration = 1825
			}
			hidden_effect = {
				set_variable = { which = added_unrest value = 5 }
				add_base_unrest = yes
			}
			custom_tooltip = added_unrest_5
			clr_province_flag = hungarian_revolt
		}
	}
	option = {		# Decentralized Hungarian Noble Council
		name = "flavor_hab.EVTOPTB3332"
		add_stability_1 = yes
		random_owned_province = {
			limit = {
				has_province_flag = hungarian_revolt
			}
			add_province_modifier = {
				name = local_autonomy_modifier
				duration = 3650
			}
			clr_province_flag = hungarian_revolt
		}
	}
}

# The Insurrection of Duke Imre Th?k?ly
country_event = {
	id = flavor_hab.3333
	title = "flavor_hab.EVTNAME3333"
	desc = "flavor_hab.EVTDESC3333"
	picture = MILITARY_CAMP_eventPicture
	
	trigger = {
		tag = HAB
		is_year = 1650
		NOT = { is_year = 1700 }
		NOT = { has_country_flag = HAB_had_event_3333 }
		religion = catholic
		NOT = { exists = HUN }
		any_owned_province = {
			OR = { region = magyar_plains_region region = north_carpathia_region }
			religion = catholic
		}
		NOT = {
			any_owned_province = {
				OR = { region = magyar_plains_region region = north_carpathia_region }
				has_province_modifier = local_autonomy_modifier
			}
		}
	}
	
	mean_time_to_happen = { years = 83 }
	
	immediate = {
		hidden_effect = {
			set_country_flag = HAB_had_event_3333
			random_owned_province = {
				limit = {
					OR = { region = magyar_plains_region region = north_carpathia_region }
					religion = catholic
				}
				set_province_flag = hungarian_revolt
			}
		}
	}
	
	option = {		# Stop the Movement for Independence!
		name = "flavor_hab.EVTOPTA3333"
		add_stability_1 = yes
		random_owned_province = {
			limit = {
				has_province_flag = hungarian_revolt
				NOT = { has_province_modifier = nationalists_organizing }
			}
			add_province_modifier = {
				name = "nationalists_organizing"
				duration = 1825
			}
			hidden_effect = {
				set_variable = { which = added_unrest value = 5 }
				add_base_unrest = yes
			}
			custom_tooltip = added_unrest_5
		}
		random_owned_province = {
			limit = {
				has_province_flag = hungarian_revolt
				NOT = { has_province_modifier = nationalists_organizing }
			}
			add_province_modifier = {
				name = "nationalists_organizing"
				duration = 1825
			}
			hidden_effect = {
				set_variable = { which = added_unrest value = 5 }
				add_base_unrest = yes
			}
			custom_tooltip = added_unrest_5
		}
		random_owned_province = {
			limit = {
				has_province_flag = hungarian_revolt
				NOT = { has_province_modifier = nationalists_organizing }
			}
			add_province_modifier = {
				name = "nationalists_organizing"
				duration = 1825
			}
			hidden_effect = {
				set_variable = { which = added_unrest value = 5 }
				add_base_unrest = yes
			}
			custom_tooltip = added_unrest_5
		}
		if = {
			limit = {
				any_owned_province = {
					OR = { region = magyar_plains_region region = north_carpathia_region }
					NOT = { has_province_flag = hungarian_revolt }
				}
			}
			every_owned_province = {
				limit = {
					OR = { region = magyar_plains_region region = north_carpathia_region }
					NOT = { has_province_flag = hungarian_revolt }
					NOT = { has_province_modifier = nationalists_organizing }
				}
				add_province_modifier = {
					name = "nationalists_organizing"
					duration = 1825
				}
				hidden_effect = {
					set_variable = { which = added_unrest value = 5 }
					add_base_unrest = yes
				}
				custom_tooltip = added_unrest_5
			}
		}
		hidden_effect = {
			every_owned_province = {
				limit = {
					has_province_flag = hungarian_revolt
				}
				clr_province_flag = hungarian_revolt
			}
		}
	}
	option = {		# Give concessions
		name = "flavor_hab.EVTOPTB3333"
		every_owned_province = {
			limit = {
				OR = { region = magyar_plains_region region = north_carpathia_region }
			}
			add_province_modifier = {
				name = local_autonomy_modifier
				duration = 3650
			}
			clr_province_flag = hungarian_revolt
		}
	}
}

# The Reform of the Bureaucracy
country_event = {
	id = flavor_hab.3336
	title = "flavor_hab.EVTNAME3336"
	desc = "flavor_hab.EVTDESC3336"
	picture = ADVISOR_eventPicture
	
	trigger = {
		tag = HAB
		is_year = 1750
		NOT = { is_year = 1800 }
		NOT = { has_country_flag = HAB_had_event_3336 }
		religion = catholic
		NOT = { exists = HUN }
		any_owned_province = {
			OR = { region = magyar_plains_region region = north_carpathia_region }
			religion = catholic
		}
		NOT = {
			any_owned_province = {
				OR = { region = magyar_plains_region region = north_carpathia_region }
				has_province_modifier = local_autonomy_modifier
			}
		}
	}
	
	mean_time_to_happen = { years = 83 }
	
	immediate = {
		set_country_flag = HAB_had_event_3336
	}
	
	option = {		# Reform
		name = "flavor_hab.EVTOPTA3336"
		subtract_stability_2 = yes
		add_country_modifier = {
			name = reform_of_the_bureaucracy
			duration = 7300
		}
		define_advisor = {
			type = statesman
			name = "Haugwitz"
			skill = 3
			discount = yes
		}
	}
	option = {		# Let it be
		name = "flavor_hab.EVTOPTB3336"
		add_stability_2 = yes
		add_years_of_income = 0.5
	}
}

# The Reactionary Reforms of 1789
country_event = {
	id = flavor_hab.3340
	title = "flavor_hab.EVTNAME3340"
	desc = "flavor_hab.EVTDESC3340"
	picture = REFORM_eventPicture
	
	trigger = {
		tag = HAB
		is_year = 1790
		NOT = { has_country_flag = HAB_had_event_3340 }
		NOT = { exists = HUN }
		NOT = { exists = NED }
		any_owned_province = {
			OR = { region = magyar_plains_region region = north_carpathia_region }
		}
		any_owned_province = {
			OR = { region = belgii_region region = low_countries_region }
		}
	}
	
	mean_time_to_happen = { years = 83 }
	
	immediate = {
		set_country_flag = HAB_had_event_3340
	}
	
	option = {		# React against Revolutionary Tendencies!
		name = "flavor_hab.EVTOPTA3340"
		add_adm_power = 200
		random_owned_province = {
			limit = {
				OR = { region = magyar_plains_region region = north_carpathia_region }
				NOT = { has_province_modifier = nationalists_organizing }
			}
			add_province_modifier = {
				name = "nationalists_organizing"
				duration = 1825
			}
			hidden_effect = {
				set_variable = { which = added_unrest value = 5 }
				add_base_unrest = yes
			}
			custom_tooltip = added_unrest_5
		}
		random_owned_province = {
			limit = {
				OR = { region = magyar_plains_region region = north_carpathia_region }
				NOT = { has_province_modifier = nationalists_organizing }
			}
			add_province_modifier = {
				name = "nationalists_organizing"
				duration = 1825
			}
			hidden_effect = {
				set_variable = { which = added_unrest value = 5 }
				add_base_unrest = yes
			}
			custom_tooltip = added_unrest_5
		}
		random_owned_province = {
			limit = {
				OR = { region = magyar_plains_region region = north_carpathia_region }
				NOT = { has_province_modifier = nationalists_organizing }
			}
			add_province_modifier = {
				name = "nationalists_organizing"
				duration = 1825
			}
			hidden_effect = {
				set_variable = { which = added_unrest value = 5 }
				add_base_unrest = yes
			}
			custom_tooltip = added_unrest_5
		}
		random_owned_province = {
			limit = {
				OR = { region = belgii_region region = low_countries_region }
				NOT = { has_province_modifier = nationalists_organizing }
			}
			add_province_modifier = {
				name = "nationalists_organizing"
				duration = 1825
			}
			hidden_effect = {
				set_variable = { which = added_unrest value = 5 }
				add_base_unrest = yes
			}
			custom_tooltip = added_unrest_5
		}
		random_owned_province = {
			limit = {
				OR = { region = belgii_region region = low_countries_region }
				NOT = { has_province_modifier = nationalists_organizing }
			}
			add_province_modifier = {
				name = "nationalists_organizing"
				duration = 1825
			}
			hidden_effect = {
				set_variable = { which = added_unrest value = 5 }
				add_base_unrest = yes
			}
			custom_tooltip = added_unrest_5
		}
		random_owned_province = {
			limit = {
				OR = { region = belgii_region region = low_countries_region }
				NOT = { has_province_modifier = nationalists_organizing }
			}
			add_province_modifier = {
				name = "nationalists_organizing"
				duration = 1825
			}
			hidden_effect = {
				set_variable = { which = added_unrest value = 5 }
				add_base_unrest = yes
			}
			custom_tooltip = added_unrest_5
		}
	}
	option = {		# Appease them
		name = "flavor_hab.EVTOPTB3340"
		add_adm_power = -100
	}
}

# Privilegium Maius
country_event = {
	id = flavor_hab.1
	title = "flavor_hab.EVTNAME1"
	desc = "flavor_hab.EVTDESC1"
	picture = REFORM_eventPicture
	
	fire_only_once = yes
	
	trigger = {
		tag = HAB
		is_emperor = yes
		NOT = { has_country_flag = austrian_archduchy }
		OR = {
			has_country_modifier = title_1
			has_country_modifier = title_2
			has_country_modifier = title_3
			has_country_modifier = title_4
		}
		NOT = { is_year = 1500 }
		dynasty = "von Habsburg"
		prestige = 50
	}
	
	mean_time_to_happen = {
		years = 20
		modifier = {
			factor = 0.95
			prestige = 75
		}
		modifier = {
			factor = 0.95
			prestige = 85
		}
		modifier = {
			factor = 0.95
			prestige = 95
		}
		modifier = {
			factor = 0.85
			prestige = 100
		}
	}
	
	option = {		# This is important for our Prestige
		name = "flavor_hab.EVTOPTA1"
		ai_chance = { factor = 100 }
		if = {
			limit = {
				NOT = { has_country_modifier = title_4 }
				NOT = { has_country_modifier = title_5 }
				NOT = { has_country_modifier = title_6 }
			}
			change_title_4 = yes
		}
		set_country_flag = austrian_archduchy
	}
	option = {		# Forgery is not the path
		name = "flavor_hab.EVTOPTB1"
		ai_chance = { factor = 0 }
		add_prestige = 10
	}
}

# The Golden Roof
country_event = {
	id = flavor_hab.2
	title = "flavor_hab.EVTNAME2"
	desc = "flavor_hab.EVTDESC2"
	picture = UNIVERSITY_eventPicture
	
	trigger = {
		tag = HAB
		is_emperor = yes
		owns = 73		# Tirol
		NOT = { has_country_flag = HAB_had_event_2 }
		is_year = 1480
		NOT = { is_year = 1530 }
	}
	
	mean_time_to_happen = {
		years = 83
		modifier = {
			factor = 0.75
			dynasty = "von Habsburg"
		}
	}
	
	immediate = {
		set_country_flag = HAB_had_event_2
	}
	
	option = {		# This will show the glory of our dynasty
		name = "flavor_hab.EVTOPTA2"
		add_prestige = 10
	}
}

# The Triumphal Procession
country_event = {
	id = flavor_hab.4
	title = "flavor_hab.EVTNAME4"
	desc = "flavor_hab.EVTDESC4"
	picture = IMPORTANT_STATUE_eventPicture
	
	trigger = {
		tag = HAB
		is_emperor = yes
		NOT = { has_country_flag = HAB_had_event_4 }
		is_year = 1500
		NOT = { is_year = 1550 }
	}
	
	mean_time_to_happen = {
		years = 83
		modifier = {
			factor = 0.75
			dynasty = "von Habsburg"
		}
	}
	
	immediate = {
		set_country_flag = HAB_had_event_4
	}
	
	option = {		# Glory for the Emperor!
		name = "flavor_hab.EVTOPTA4"
		add_years_of_income = -1
		add_country_modifier = {
			name = the_triumphal_procession
			duration = 9125
		}
	}
	option = {		# It's too costly
		name = "flavor_hab.EVTOPTB4"
	}
}

# Styrian Nobles' Revolt
country_event = {
	id = flavor_hab.5
	title = "flavor_hab.EVTNAME5"
	desc = "flavor_hab.EVTDESC5"
	picture = ANGRY_MOB_eventPicture
	
	trigger = {
		tag = HAB
		owns = 132		# Graz
		NOT = { has_country_flag = HAB_had_event_5 }
		is_year = 1450
		NOT = { is_year = 1550 }
	}
	
	mean_time_to_happen = { years = 166 }
	
	immediate = {
		set_country_flag = HAB_had_event_5
	}
	
	option = {		# Crush the Rebellion!
		name = "flavor_hab.EVTOPTA5"
		random_owned_province = {
			limit = {
				NOT = { has_province_modifier = nobles_organizing }
			}
			add_province_modifier = {
				name = "nobles_organizing"
				duration = 1825
			}
			hidden_effect = {
				set_variable = { which = added_unrest value = 5 }
				add_base_unrest = yes
			}
			custom_tooltip = added_unrest_5
		}
		random_owned_province = {
			limit = {
				NOT = { has_province_modifier = nobles_organizing }
			}
			add_province_modifier = {
				name = "nobles_organizing"
				duration = 1825
			}
			hidden_effect = {
				set_variable = { which = added_unrest value = 5 }
				add_base_unrest = yes
			}
			custom_tooltip = added_unrest_5
		}
	}
}

# The Meteorite of Ensisheim
country_event = {
	id = flavor_hab.6
	title = "flavor_hab.EVTNAME6"
	desc = "flavor_hab.EVTDESC6"
	picture = COMET_SIGHTED_eventPicture
	
	trigger = {
		tag = HAB
		owns = 1356		# Sundgau
		NOT = { has_country_flag = HAB_had_event_6 }
		is_year = 1450
		NOT = { is_year = 1550 }
	}
	
	mean_time_to_happen = { years = 166 }
	
	immediate = {
		set_country_flag = HAB_had_event_6
	}
	
	option = {		# A true wonder!
		name = "flavor_hab.EVTOPTA6"
		add_stability_2 = yes
		add_prestige = 25
	}
}

# The Habsburg Dynasty
country_event = {
	id = flavor_hab.7
	title = "flavor_hab.EVTNAME7"
	desc = "flavor_hab.EVTDESC7"
	picture = COURT_eventPicture
	
	trigger = {
		tag = HAB
		has_heir = no
		is_free_or_tributary_trigger = yes
		NOT = { dynasty = "von Habsburg" }
	}
	
	mean_time_to_happen = { years = 50 }
	
	immediate = {
		random_list = {
			90 = {
				set_country_flag = habsburg_male_heir
			}
			10 = {
				set_country_flag = habsburg_female_heir
			}
		}
		random_list = {
			40 = { set_country_flag = habsburg_adm_heir }
			40 = { set_country_flag = habsburg_dip_heir }
			20 = { set_country_flag = habsburg_mil_heir }
		}
	}
	
	option = {		# DYNASTY shall continue to rule!
		name = "flavor_hab.EVTOPTA7"
		add_legitimacy = 1
	}
	option = {		# The Habsburg dynasty must return!
		name = "flavor_hab.EVTOPTB7"
		add_legitimacy = -50
		# Male heir
		if = {
			limit = {
				has_country_flag = habsburg_male_heir
			}
			if = {
				limit = {
					has_country_flag = habsburg_adm_heir
				}
				define_heir = {
					dynasty = "von Habsburg"
					ADM = 4
					DIP = 1
					MIL = 1
					claim = 80
				}
				clr_country_flag = habsburg_adm_heir
			}
			if = {
				limit = {
					has_country_flag = habsburg_dip_heir
				}
				define_heir = {
					dynasty = "von Habsburg"
					ADM = 1
					DIP = 4
					MIL = 1
					claim = 80
				}
				clr_country_flag = habsburg_dip_heir
			}
			if = {
				limit = {
					has_country_flag = habsburg_mil_heir
				}
				define_heir = {
					dynasty = "von Habsburg"
					ADM = 1
					DIP = 1
					MIL = 4
					claim = 80
				}
				clr_country_flag = habsburg_mil_heir
			}
			clr_country_flag = habsburg_male_heir
		}
		# Female heir
		if = {
			limit = {
				has_country_flag = habsburg_female_heir
			}
			if = {
				limit = {
					has_country_flag = habsburg_adm_heir
				}
				define_heir = {
					dynasty = "von Habsburg"
					female = yes
					ADM = 4
					DIP = 1
					MIL = 1
					claim = 80
				}
				clr_country_flag = habsburg_adm_heir
			}
			if = {
				limit = {
					has_country_flag = habsburg_dip_heir
				}
				define_heir = {
					dynasty = "von Habsburg"
					female = yes
					ADM = 1
					DIP = 4
					MIL = 1
					claim = 80
				}
				clr_country_flag = habsburg_dip_heir
			}
			if = {
				limit = {
					has_country_flag = habsburg_mil_heir
				}
				define_heir = {
					dynasty = "von Habsburg"
					female = yes
					ADM = 1
					DIP = 1
					MIL = 4
					claim = 80
				}
				clr_country_flag = habsburg_mil_heir
			}
			clr_country_flag = habsburg_female_heir
		}
	}
}


########################################
# Minor Flavor Events                  #
########################################

# Ludwig van Beethoven
country_event = {
	id = flavor_hab.5190
	title = "flavor_hab.EVTNAME5190"
	desc = "flavor_hab.EVTDESC5190"
	picture = THEATRE_eventPicture
	
	trigger = {
		tag = HAB
		is_year = 1790
		NOT = { is_year = 1821 }
		NOT = { has_country_flag = HAB_had_event_5190 }
	}
	
	mean_time_to_happen = { years = 25 }
	
	immediate = {
		set_country_flag = HAB_had_event_5190
	}
	
	option = {		# Excellent
		name = "EXCELLENT"
		add_adm_power = 10
		add_prestige = 10
	}
}

# Wolfgang Amadeus Mozart
country_event = {
	id = flavor_hab.5191
	title = "flavor_hab.EVTNAME5191"
	desc = "flavor_hab.EVTDESC5191"
	picture = THEATRE_eventPicture
	
	trigger = {
		tag = HAB
		is_year = 1774
		NOT = { is_year = 1791 }
		NOT = { has_country_flag = HAB_had_event_5191 }
	}
	
	mean_time_to_happen = { years = 16 }
	
	immediate = {
		set_country_flag = HAB_had_event_5191
	}
	
	option = {		# Excellent
		name = "EXCELLENT"
		add_adm_power = 10
		add_prestige = 10
	}
}


########################################
# The Italian Wars
########################################

# The Italian Wars
country_event = {
	id = flavor_hab.1007
	title = "flavor_spa.EVTNAME1007"
	desc = "flavor_spa.EVTDESC1007"
	picture = MILITARY_CAMP_eventPicture
	
	trigger = {
		tag = HAB
		is_emperor = yes
		is_year = 1490
		NOT = { is_year = 1590 }
		NOT = { has_country_flag = HAB_had_event_1007 }
		NOT = { alliance_with = FRA }
		NOT = { is_subject_of = FRA }
		NOT = { war_with = FRA }
		italy_superregion = {
			is_part_of_hre = yes
		}
		italy_superregion = {
			owned_by = FRA
		}
	}
	
	mean_time_to_happen = {
		years = 166
		modifier = {
			factor = 0.95
			FRA = {
				num_of_owned_provinces_with = {
					value = 2
					superregion = italy_superregion
				}
			}
		}
		modifier = {
			factor = 0.95
			FRA = {
				num_of_owned_provinces_with = {
					value = 4
					superregion = italy_superregion
				}
			}
		}
		modifier = {
			factor = 0.95
			FRA = {
				num_of_owned_provinces_with = {
					value = 6
					superregion = italy_superregion
				}
			}
		}
		modifier = {
			factor = 0.95
			num_of_owned_provinces_with = {
				value = 2
				superregion = italy_superregion
			}
		}
		modifier = {
			factor = 0.95
			num_of_owned_provinces_with = {
				value = 4
				superregion = italy_superregion
			}
		}
		modifier = {
			factor = 0.95
			num_of_owned_provinces_with = {
				value = 6
				superregion = italy_superregion
			}
		}
	}
	
	immediate = {
		set_country_flag = HAB_had_event_1007
	}
	
	option = {		# Claim all French land in Italy!
		name = "flavor_spa.EVTOPTA1007"
		ai_chance = { factor = 90 }
		FRA = {
			add_opinion = {
				who = ROOT
				modifier = claimed_italy
			}
			every_owned_province = {
				limit = {
					superregion = italy_superregion
				}
				add_claim = ROOT
			}
			hidden_effect = {
				country_event = { id = flavor_hab.1008 days = 10 }
			}
		}
	}
	option = {		# Italy lies outside our sphere of interest
		name = "flavor_spa.EVTOPTB1007"
		ai_chance = { factor = 10 }
		add_prestige = -10
	}
}


# The Italian Wars
country_event = {
	id = flavor_hab.1008
	title = "flavor_spa.EVTNAME1008"
	desc = "flavor_spa.EVTDESC1008"
	picture = LAND_MILITARY_eventPicture
	
	is_triggered_only = yes
	
	option = {		# Then counter-claim all ADJECTIVE provinces!
		name = "flavor_spa.EVTOPTA1008"
		trigger = {
			italy_superregion = {
				owned_by = FROM
			}
		}
		ai_chance = { factor = 90 }
		FROM = {
			every_owned_province = {
				limit = {
					superregion = italy_superregion
				}
				add_claim = ROOT
			}
			hidden_effect = {
				country_event = { id = flavor_hab.1009 days = 10 }
			}
		}
	}
	option = {		# We should back down in Italy
		name = "flavor_spa.EVTOPTB1008"
		ai_chance = { factor = 10 }
		add_prestige = -10
	}
	option = {		# If it's war they want...
		name = "flavor_hab.EVTOPTC1008"
		trigger = {
			NOT = {
				italy_superregion = {
					owned_by = FROM
				}
			}
		}
		ai_chance = { factor = 90 }
		add_prestige = 10
		FROM = {
			add_opinion = {
				who = ROOT
				modifier = claimed_italy
			}
		}
	}
}

# The Italian Wars
country_event = {
	id = flavor_hab.1009
	title = "flavor_spa.EVTNAME1009"
	desc = "flavor_spa.EVTDESC1009"
	picture = MILITARY_CAMP_eventPicture
	
	is_triggered_only = yes
	
	option = {		# How dare they?! Italy is ours!
		name = "flavor_spa.EVTOPTA1009"
		add_opinion = {
			who = FROM
			modifier = claimed_italy
		}
	}
}

#############################################
# Austrian Consolidation of the Erblande	#
#############################################

# Magarete of Tyrols heir dies
country_event = {
	id = flavor_hab.1010
	title = flavor_hab.1010.title
	desc = flavor_hab.1010.desc
	picture = DEATH_OF_HEIR_eventPicture
	
	fire_only_once = yes
	
	trigger = {
		tag = TIR
		is_female = yes
		#has_heir = yes
	}
	
	mean_time_to_happen = {
		months = 20
		modifier = {
			factor = 0.75
			any_country = {
				dynasty = "von Habsburg"
				marriage_with = ROOT
			}
		}
		modifier = {
			factor = 0.75
			any_country = {
				dynasty = "von Habsburg"
				alliance_with = ROOT
			}
		}
		modifier = {
			factor = 0.5
			has_heir = no
		}
	}
	
	immediate = {
		if = {
			limit = {
				has_heir = yes
			}
			kill_heir = yes
			custom_tooltip = flavor_hab.ct.1
		}
		if = {
			limit = {
				has_heir = no
			}
			custom_tooltip = flavor_hab.ct.2
		}
	}
	
	option = {
		#Give the Land to the Habsburgs
		name = flavor_hab.1010.a
		ai_chance = { factor = 100 }
		set_global_flag = habsburgs_in_tyrol
		define_heir = {
			#The next ruler is going to be a Habsburg
			claim = 75
			dynasty = "von Habsburg"
			age = 20
		}
		if = {
			#Tyrol is now part of the Habsburg domains
			limit = { HAB = { dynasty = "von Habsburg" } }
			create_alliance = HAB
			create_marriage = HAB
		}
		if = {
			#The Witteslbachers have claims if the ruler is Margarete
			limit = { has_ruler = "Margarete von Tirol - G?rz" }
			if = {
				limit = { BAV = { dynasty = "von Wittelsbach" } }
				BAV	= {
					add_casus_belli = {
						target = TIR
						type = cb_restore_personal_union
						months = 24
					}
				}
			}
			if = {
				limit = { BAW = { dynasty = "von Wittelsbach" } }
				BAW	= {
					add_casus_belli = {
						target = TIR
						type = cb_restore_personal_union
						months = 24
					}
				}
			}
			if = {
				limit = { BAX = { dynasty = "von Wittelsbach" } }
				BAX	=  {
					add_casus_belli = {
						target = TIR
						type = cb_restore_personal_union
						months = 24
					}
				}
			}
			if = {
				limit = { BAY = { dynasty = "von Wittelsbach" } }
				BAY	= {
					add_casus_belli = {
						target = TIR
						type = cb_restore_personal_union
						months = 24
					}
				}
			}
			if = {
				limit = { BAZ = { dynasty = "von Wittelsbach" } }
				BAZ	= {
					add_casus_belli = {
						target = TIR
						type = cb_restore_personal_union
						months = 24
					}
				}
			}
			if = {
				limit = { PAL = { dynasty = "von Wittelsbach" } }
				PAL = {
					add_casus_belli = {
						target = TIR
						type = cb_restore_personal_union
						months = 24
					}
				}
			}
		}
	}
	
	option = {
		#Retain our Dynasty
		name = flavor_hab.1010.b
		ai_chance = { factor = 0 }
		if = {
			limit = { HAB = { dynasty = "von Habsburg" } }
			HAB = {
				add_casus_belli = {
					target = TIR
					type = cb_restore_personal_union
					months = 24
				}
			}
		}
	}
}

# Loss of the Habsburg dynasty
country_event = {
	id = flavor_hab.1011
	title = flavor_hab.1011.title
	desc = flavor_hab.1011.desc
	picture = KING_SICK_IN_BED_eventPicture
	
	major = yes
	is_triggered_only = yes
	
	trigger = {
		OR = {
			#You need to be part of the core Austrian Lands OR Tyrol that has Habsburg rulers through the Event
			tag = HAB
			tag = STY
			AND = {
				tag = TIR
				has_global_flag = habsburgs_in_tyrol
			}
		}
		is_at_war = no
		OR = {
			#One of the other core parts of Austria must be ruled by a Habsburg
			AND = {
				HAB = {
					dynasty = "von Habsburg"
					exists = yes
				}
				NOT = {
					tag = HAB
				}
			}
			AND = {
				STY = {
					dynasty = "von Habsburg"
					exists = yes
				}
				NOT = {
					tag = STY
				}
			}
			AND = {
				TIR = {
					dynasty = "von Habsburg"
					exists = yes
				}
				NOT = {
					tag = TIR
				}
			}
		}
		NOT = {
			dynasty = "von Habsburg"
			has_country_flag = no_habsburgs
		}
	}
	
	option = {
		#Give Austria back its lands
		name = flavor_hab.1011.a
		ai_chance = { factor = 1 }
		#Inheritance by HAB is prioritised over STY and TIR, if HAB doesn't exist but STY does, then STY will inherit, if HAB and STY don't exist, TIR will inherit
		if = {
			limit = {
				exists = HAB
				NOT = {
					tag = HAB
				}
				HAB = {
					dynasty = "von Habsburg"
				}
			}
			HAB = {
				country_event = { id = flavor_hab.1012 }
			}
		}
		if = {
			limit = {
				exists = STY
				NOT = {
					exists = HAB
					tag = STY
				}
				STY = {
					dynasty = "von Habsburg"
				}
			}
			set_country_flag = habsburg_going_to_be_inherited
			STY = {
				country_event = { id = flavor_hab.1012 }
			}
		}
		if = {
			limit = {
				exists = TIR
				NOT = {
					exists = HAB
					exists = STY
					tag = TIR
				}
				TIR = {
					dynasty = "von Habsburg"
				}
			}
			TIR = {
				country_event = { id = flavor_hab.1012 }
			}
		}
	}
	
	option = {
		#Never!
		name = flavor_hab.1011.b
		ai_chance = { factor = 0 }
		set_country_flag = no_habsburgs
		if = {
			limit = {
				tag = TIR
			}
			clr_global_flag = habsburgs_in_tyrol
		}
		if = {
			limit = {
				exists = HAB
				NOT = {
					tag = HAB
				}
				HAB = {
					dynasty = "von Habsburg"
				}
			}
			HAB = {
				country_event = { id = flavor_hab.1013 }
			}
		}
		if = {
			limit = {
				exists = STY
				NOT = {
					tag = STY
				}
				STY = {
					dynasty = "von Habsburg"
				}
			}
			STY = {
				country_event = { id = flavor_hab.1013 }
			}
		}
		if = {
			limit = {
				exists = TIR
				NOT = {
					tag = TIR
				}
				TIR = {
					dynasty = "von Habsburg"
				}
			}
			TIR = {
				country_event = { id = flavor_hab.1013 }
			}
		}
	}
}

# Notification of inheritance
country_event = {
	id = flavor_hab.1012
	title = flavor_hab.1012.title
	desc = flavor_hab.1012.desc
	picture = KING_SICK_IN_BED_eventPicture
	
	is_triggered_only = yes
	
	option = {
		#Good!
		name = "flavor_hab.1012.a"
		ai_chance = { factor = 1 }
		inherit = FROM
	}
	
	option = {
		#What?! We don't want that!
		name = "flavor_hab.1012.b"
		ai_chance = { factor = 0 }
	}
}

# Notification of resistance
country_event = {
	id = flavor_hab.1013
	title = flavor_hab.1013.title
	desc = flavor_hab.1013.desc
	picture = CONQUEST_eventPicture
	
	is_triggered_only = yes
	
	option = {
		#What?! Bastards!
		name = "flavor_hab.1013.a"
		ai_chance = { factor = 1 }
		#Give cores on all of FROMs land that is in the austrian region
		FROM = {
			every_core_province = {
				limit = {
					region = austrian_circle_region
				}
				add_core = HAB
			}
		}
	}
	
	option = {
		#We don't want that land anyway.
		name = "flavor_hab.1013.b"
		ai_chance = { factor = 0 }
	}
}

# Your Habsburg ruler has died, Austria might acquire your land
country_event = {
	id = flavor_hab.1018
	title = flavor_hab.1014.title
	desc = flavor_hab.1014.desc
	picture = KING_SICK_IN_BED_eventPicture
	
	is_triggered_only = yes
	
	trigger = {
		OR = {
			#You need to be one of the core parts of Austria OR a Tyrol that has gotten Habsburgs per event
			tag = HAB
			tag = STY
			AND = {
				tag = TIR
				has_global_flag = habsburgs_in_tyrol
			}
		}
		dynasty = "von Habsburg"
		is_at_war = no
		OR = {
			#Another of the core parts of Austria, OR a Tyrol that has gotten Habsburg per event, must have a Habsburg ruler
			AND = {
				HAB = {
					dynasty = "von Habsburg"
					exists = yes
				}
				NOT = {
					tag = HAB
				}
			}
			AND = {
				STY = {
					dynasty = "von Habsburg"
					exists = yes
				}
				NOT = {
					tag = STY
				}
			}
			AND = {
				TIR = {
					dynasty = "von Habsburg"
					exists = yes
				}
				NOT = {
					tag = TIR
				}
			}
		}
	}
	
	option = {
		#Damn.
		name = flavor_hab.1014.a
		ai_chance = { factor = 1 }
		#25% chance for the other countries to inherit you
		#Chance not set in stone
		random_list = {
			25 = {
				if = {
					limit = {
						exists = HAB
						NOT = {
							tag = HAB
						}
						HAB = {
							dynasty = "von Habsburg"
						}
					}
					HAB = {
						country_event = { id = flavor_hab.1015 }
					}
				}
				if = {
					limit = {
						exists = STY
						NOT = {
							exists = HAB
							tag = STY
						}
						STY = {
							dynasty = "von Habsburg"
						}
					}
					set_country_flag = habsburg_going_to_be_inherited
					STY = {
						country_event = { id = flavor_hab.1015 }
					}
				}
				if = {
					limit = {
						exists = TIR
						NOT = {
							exists = HAB
							exists = STY
							tag = TIR
						}
						TIR = {
							dynasty = "von Habsburg"
						}
					}
					TIR = {
						country_event = { id = flavor_hab.1015 }
					}
				}
			}
			75 = {
				
			}
		}
	}
}

# Notification of inheritance through pressure on new monarch
country_event = {
	id = flavor_hab.1015
	title = flavor_hab.1015.title
	desc = flavor_hab.1015.desc
	picture = KING_SICK_IN_BED_eventPicture
	
	major = yes
	is_triggered_only = yes
	
	immediate = {
		FROM = {
			clr_country_flag = habsburg_going_to_be_inherited
		}
	}
	
	option = {
		#Good!
		name = "flavor_hab.1015.a"
		ai_chance = { factor = 1 }
		inherit = FROM
	}
	
	option = {
		#What?! We don't want that!
		name = "flavor_hab.1015.b"
		ai_chance = { factor = 0 }
	}
}

# Tyrol is in a war that is being lost and is in debt, local nobles pressure the ruler to give their lands to the Habsburgs
country_event = {
	id = flavor_hab.1016
	title = flavor_hab.1016.title
	desc = flavor_hab.1016.desc
	picture = COURT_eventPicture
	
	trigger = {
		tag = TIR
		has_global_flag = habsburgs_in_tyrol
		dynasty = "von Habsburg"
		is_at_war = yes
		NOT = {
			war_score = -49
		}
		num_of_loans = 2
	}
	
	mean_time_to_happen = {
		years = 100
		modifier = {
			factor = 0.75
			emperor = {
				dynasty = "von Habsburg"
			}
		}
	}
	
	option = {
		#Very well.
		name = "flavor_hab.1016.a"
		ai_chance = { factor = 10 }
		if = {
			limit = {
				exists = HAB
				NOT = {
					tag = HAB
				}
				HAB = {
					dynasty = "von Habsburg"
				}
			}
			HAB = {
				country_event = { id = flavor_hab.1017 }
			}
		}
		if = {
			limit = {
				exists = STY
				NOT = {
					exists = HAB
					tag = STY
				}
				STY = {
					dynasty = "von Habsburg"
				}
			}
			set_country_flag = habsburg_going_to_be_inherited
			STY = {
				country_event = { id = flavor_hab.1017 }
			}
		}
		if = {
			limit = {
				exists = TIR
				NOT = {
					exists = HAB
					exists = STY
					tag = TIR
				}
				TIR = {
					dynasty = "von Habsburg"
				}
			}
			TIR = {
				country_event = { id = flavor_hab.1017 }
			}
		}
	}
	
	option = {
		#I will not be robbed of my lands!
		name = "flavor_hab.1016.b"
		ai_chance = { factor = 1 }
		random_owned_province = {
			limit = {
				NOT = { is_core = ROOT }
				NOT = { has_province_modifier = nobles_organizing }
			}
			add_province_modifier = {
				name = "nobles_organizing"
				duration = 1825
			}
			hidden_effect = {
				set_variable = { which = added_unrest value = 5 }
				add_base_unrest = yes
			}
			custom_tooltip = added_unrest_5
		}
		random_owned_province = {
			limit = {
				NOT = { is_core = ROOT }
				NOT = { has_province_modifier = nobles_organizing }
			}
			add_province_modifier = {
				name = "nobles_organizing"
				duration = 1825
			}
			hidden_effect = {
				set_variable = { which = added_unrest value = 5 }
				add_base_unrest = yes
			}
			custom_tooltip = added_unrest_5
		}
	}
}

# Notification of inheritance of Tyrol through the local nobles
country_event = {
	id = flavor_hab.1017
	title = flavor_hab.1017.title
	desc = flavor_hab.1017.desc
	picture = CONQUEST_eventPicture
	
	is_triggered_only = yes
	
	immediate = {
		FROM = {
			clr_country_flag = habsburg_going_to_be_inherited
		}
	}
	
	option = {
		#Good!
		name = "flavor_hab.1017.a"
		ai_chance = { factor = 1 }
		inherit = FROM
	}
	
	option = {
		#What?! We don't want that!
		name = "flavor_hab.1017.b"
		ai_chance = { factor = 0 }
	}
}
