
#Florence engages miners

country_event = {
	id = si_generic.1
	title = "si_generic.EVTNAME1"
	desc = "si_generic.EVTDESC1"
	picture = COURT_eventPicture
	
	trigger = {
		OR = {
			tag = ITA
			tag = SPI
			tag = GER
			tag = ERG
		}
		OR = {
			government = despotic_monarchy
			government = medieval_monarchy
			government = feudal_monarchy
			government = administrative_monarchy
		}
		absolutism = 60
	}
	
	mean_time_to_happen = { months = 1 }
	
	option = {
		name = "si_generic.EVTOPTA1"		# It's good to be the King.
		change_government = absolute_monarchy
		if = {
			limit = { NOT = { has_country_modifier = title_5 } NOT = { has_country_modifier = title_6 } }
			change_title_5 = yes
		}
	}
}

country_event = {
	id = si_generic.2
	title = "si_generic.EVTNAME2"
	desc = "si_generic.EVTDESC2"
	picture = MEDICI_PISA_eventPicture
	
	fire_only_once = yes
	
	trigger = {
		has_country_flag = Pisa_Florence_War
		tag = FIR
		NOT = { has_country_flag = Pisa_Florence_war_over }
	}
	
	mean_time_to_happen = { months = 1 }
	
	option = {
		name = "si_generic.EVTOPTA2"		# Let's get ready
		set_global_flag = pisan_insurrection
		infantry = 116
		infantry = 116
	}
}

country_event = {
	id = si_generic.3
	title = "si_generic.EVTNAME3"
	desc = "si_generic.EVTDESC3"
	picture = POPE_PREACHING_eventPicture
	
	fire_only_once = yes
	
	trigger = {
		tag = PAP
		NOT = { is_year = 1500 }
	}
	
	mean_time_to_happen = { months = 1 }
	
	option = {
		name = "si_generic.EVTOPTA3"		# They don't like us
		URB = {
			add_opinion = {
				who = PAP
				modifier = opinion_pap_vassal
			}
		}
		RIM = {
			add_opinion = {
				who = PAP
				modifier = opinion_pap_vassal
			}
		}
		BLG = {
			add_opinion = {
				who = PAP
				modifier = opinion_pap_vassal
			}
		}
	}
}
