# 1066 - Novossibirsk

capital = "Eushta"
trade_goods = unknown
culture = tartar
religion = tengri_pagan_reformed

base_tax = 1
base_production = 0
base_manpower = 0

native_size = 5
native_ferocity = 2
native_hostileness = 3

discovered_by = steppestech

450.1.1 = {
	set_province_flag = tribals_control_province
}
1468.1.1 = {
	culture = siberian
}
1585.1.1 = {
	discovered_by = RUS
	owner = RUS
	controller = RUS
#	religion = orthodox
#	culture = russian
	rename_capital = "Tomsk"
	change_province_name = "Tomsk"
	citysize = 120
	trade_goods = fur
	set_province_flag = trade_good_set
} # Yermak Timofeevic
1600.1.1 = {
	citysize = 240
}
1631.1.1 = {
	add_core = RUS
}
1650.1.1 = {
	citysize = 455
}
1666.1.1 = {
	unrest = 4
} # Samoyed rebellion
1669.1.1 = {
	unrest = 0
}
1679.1.1 = {
	unrest = 3
}
1680.1.1 = {
	unrest = 0
}
1700.1.1 = {
	citysize = 831
}
1750.1.1 = {
	is_city = yes
}
