# 1143 - sichuan_area Cuiping

owner = DLI
controller = XIA

capital = "Luzhou"
trade_goods = rice
culture = yizu
religion = animism

hre = no

base_tax = 12
base_production = 0
base_manpower = 0

is_city = yes

discovered_by = chinese
discovered_by = steppestech

450.1.1 = {
	set_province_flag = tribals_control_province
}
#500.1.1 = {
#	add_permanent_province_modifier = {
#		name = urban_goods_beer
#		duration = -1
#	}
#}
985.1.1 = {
	owner = SNG
	controller = SNG
	add_core = SNG
}
1276.1.1 = {
	owner = LNG
	controller = LNG
	add_core = LNG
	add_core = YUA
} # Creation of Liang viceroy
1320.1.1 = {
	remove_core = SNG
}
1351.1.1 = {
	controller = XIA
}
1375.1.1 = {
	owner = MNG
	controller = MNG
	add_core = MNG
	remove_core = LNG
	remove_core = YUA
}
1513.1.1 = {
	unrest = 5
} # Peasant rebellion, Jiangxi
1514.1.1 = {
	unrest = 0
}
1520.1.1 = {
	culture = bashu
	religion = confucianism
	clr_province_flag = tribals_control_province
	base_tax = 19
}
1645.6.25 = {
	owner = QNG
	controller = QNG
	add_core = QNG
} # The Qing Dynasty
#1662.1.1 = {
#	owner = QNG
#	controller = QNG
#	add_core = QNG
#	remove_core = MNG
#} # The Qing Dynasty
1662.1.1 = {
	remove_core = MNG
}
