# No previous file for Tahontaenrat

capital = "Tahontaenrat"
trade_goods = unknown
culture = innu
religion = totemism

hre = no

base_tax = 3
base_production = 0
base_manpower = 0

native_size = 70
native_ferocity = 1
native_hostileness = 6

450.1.1 = {
	set_province_flag = tribals_control_province
}
1534.1.1 = {
	discovered_by = FRA
} # Jacques Cartier
1599.1.1 = {
	owner = FRA
	controller = FRA
	citysize = 200
	rename_capital = "Tadoussac"
	change_province_name = "Tadoussac"
	religion = catholic
	culture = francien
	trade_goods = fur
	set_province_flag = trade_good_set
}
1625.1.1 = {
	add_core = FRA
}
1650.1.1 = {
	citysize = 500
}
1700.1.1 = {
	is_city = yes
}
1750.1.1 = {
	add_core = QUE
	culture = canadian
}
1763.2.10 = {
	owner = GBR
	controller = GBR
	add_core = GBR
	remove_core = FRA
}
1800.1.1 = {
	is_city = yes
}
