# 2249 - Jinzhou

owner = YUA
controller = YUA

capital = "Jinzhou"
trade_goods = fish
culture = jiaoliao
religion = mahayana

hre = no

base_tax = 7
base_production = 2
base_manpower = 0

is_city = yes
marketplace = yes
harbour_infrastructure_1 = yes
urban_infrastructure_1 = yes

discovered_by = chinese
discovered_by = steppestech

450.1.1 = {
	set_province_flag = has_natural_harbour
	set_province_flag = has_great_natural_harbour
	set_province_flag = good_natural_place
	add_permanent_province_modifier = {
		name = "liaodong_natural_harbour"
		duration = -1
	}
}
1271.12.18 = {
	add_core = YUA
} # Proclamation of Yuan dynasty
1308.1.1 = {
	owner = CSE
	controller = CSE
	add_core = CSE
} # Shen viceroy
1355.1.1 = {
	controller = QII
	unrest = 10
}
1361.1.1 = {
	controller = CSE
}
1376.1.1 = {
	owner = MXI
	controller = MXI
	add_core = MXI
	remove_core = CSE
}
1381.1.1 = {
	owner = MNG
	controller = MNG
	add_core = MNG
	remove_core = MXI
	remove_core = YUA
}
1520.2.2 = {
	base_tax = 10
	base_production = 3
	base_manpower = 1
}
#1530.1.1 = {
#	fort_14th = no
#	fort_15th = yes
#}
1621.4.29 = {
	owner = JIN
	controller = JIN
}
1644.6.6 = {
	owner = QNG
	controller = QNG
	add_core = QNG
	remove_core = MNG
} # The Qing Dynasty
