# 2654 - Baban

owner = JAI
controller = JAI
add_core = JAI

capital = "Sulaymania"
trade_goods = wheat
culture = kurdish
religion = sunni

hre = no

base_tax = 6
base_production = 0
base_manpower = 0

is_city = yes

discovered_by = muslim
discovered_by = turkishtech
discovered_by = western
discovered_by = eastern
discovered_by = steppestech

450.1.1 = {
	set_province_flag = tribals_control_province
	set_variable = { which = tribals_ratio	value = 52 }
}
1356.1.1 = {
	add_core = AKK
}
1384.1.1 = {
	owner = TIM
	controller = TIM
}
1408.1.1 = {
	controller = QAR
}
1409.1.1 = {
	owner = QAR
	add_core = QAR
	remove_core = TIM
} # Fars and surroundings to Qara Quyunlu
1444.1.1 = {
	remove_core = JAI
}
1444.1.1 = {
	add_core = IRQ
	remove_core = QAR
	add_core = AKK
}
1469.1.1 = {
	controller = AKK
}
1470.1.1 = {
	owner = AKK
	add_core = AKK
	remove_core = QAR
}
1478.1.6 = {
	controller = REB
	revolt = {
		type = pretender_rebels
	}
} # Death of Uzun Hasan
1481.1.1 = {
	controller = AKK
	revolt = { }
} # End of civil war
1490.1.1 = {
	controller = REB
	revolt = {
		type = pretender_rebels
	}
} # Civil War
1494.1.1 = {
	controller = AKK
	revolt = { }
} # Civil War
1500.3.3 = {
	base_tax = 7
}
1501.1.1 = {
	controller = SAM
}
1508.1.1 = {
	owner = SAM
}
1512.1.1 = {
	owner = PER
	controller = PER
	add_core = PER
	remove_core = SAM
	remove_core = AKK
	fort_14th = yes
	courthouse = yes
} # Safawids "form persia"
1529.1.1 = {
	revolt = {
		type = anti_tax_rebels
	}
	controller = REB
} # Ottomans instigate rebellion
1530.1.1 = {
	revolt = { }
	controller = PER
}
1530.1.1 = {
	add_permanent_claim = IRQ
	add_permanent_claim = TUR
} #As Caliph, duty to rescue Baghdad
1534.11.28 = {
	controller = TUR
} # Ottoman conquest
1535.1.1 = {
	owner = TUR
	add_core = TUR
	remove_claim = TUR
} # Annexed by the Ottomans
1624.1.1 = {
	controller = PER
}
1635.1.1 = {
	controller = TUR
}
