# No previous file for Argyn

owner = BLU
controller = BLU
add_core = BLU

capital = "Argyn"
trade_goods = wool
culture = tartar
religion = sunni

hre = no

base_tax = 6
base_production = 0
base_manpower = 0

is_city = yes

discovered_by = steppestech

450.1.1 = {
	set_province_flag = tribals_control_province
}
1382.1.1 = {
	owner = GOL
	controller = GOL
	add_core = GOL
	remove_core = BLU
}
1428.1.1 = {
	owner = SHY
	controller = SHY
	add_core = SHY
}
1444.1.1 = {
	remove_core = GOL
	remove_core = BLU
}
1465.1.1 = {
	owner = KZH
	controller = KZH
	add_core = KZH
	culture = khazak
	remove_core = SHY
}
1501.1.1 = {
	base_tax = 7
}
1740.1.1 = {
	owner = OIR
	controller = OIR
} # Dzungarian invasion
1755.1.1 = {
	owner = KZH
	controller = KZH
}
