# No previous file for Gorenjska

owner = HAB
controller = HAB

capital = "Kranj"
trade_goods = livestock
culture = slovenian
religion = catholic

hre = yes

base_tax = 5
base_production = 0
base_manpower = 0

is_city = yes
road_network = yes
local_fortification_1 = yes

discovered_by = western
discovered_by = eastern
discovered_by = muslim
discovered_by = turkishtech

1269.1.1 = {
	controller = BOH
	owner = BOH
	add_core = BOH
}
1276.1.1 = {
	controller = HAB
	owner = HAB
	add_core = HAB
	add_core = CAR
}
1283.1.1 = {
	remove_core = BOH
}
1379.1.1 = {
	controller = STY
	owner = STY
	add_core = STY
}
1490.1.1 = {
	controller = HAB
	owner = HAB
	remove_core = STY
}
#1500.1.1 = {
#	road_network = yes
#}
1525.5.1 = {
	unrest = 5
} # Farmer insurrections
1526.1.1 = {
	unrest = 0
}
1578.1.1 = {
	fort_14th = yes
}
1805.12.26 = {
	add_core = STY
}
1806.7.12 = {
	hre = no
} # The Holy Roman Empire is dissolved
1809.10.14 = {
	controller = FRA
	owner = FRA
	add_core = FRA
}#treaty of schonnbrunn
1814.4.11 = {
	owner = HAB
	controller = HAB
	add_core = HAB
	remove_core = FRA
} # Treaty of Fontainebleau, Napoleon abdicates unconditionally
