# 4049 - Myiek

owner = AYU
controller = AYU
add_core = AYU

capital = "Marit"
trade_goods = ebony
culture = monic
religion = buddhism

hre = no

base_tax = 4
base_production = 0
base_manpower = 0

is_city = yes

discovered_by = chinese
discovered_by = indian
discovered_by = muslim

1501.1.1 = {
	base_tax = 5
}
1535.1.1 = {
	discovered_by = POR
}
1767.4.8 = {
	owner = SIA
	controller = SIA
	add_core = SIA
	remove_core = AYU
	unrest = 0
}
1793.1.1 = {
	owner = BRM
	controller = BRM
	add_core = BRM
	rename_capital = "Myeik"
	change_province_name = "Myeik"
}
1826.2.24 = {
	owner = GBR
	controller = GBR
	add_core = GBR
}
