# 667 - guizhou_area Qixingguan

owner = YUA
controller = YUA

capital = "Guiding"
trade_goods = opium
culture = miao
religion = animism

hre = no

base_tax = 33
base_production = 1
base_manpower = 2

is_city = yes
town_hall = yes
marketplace = yes
temple = yes
fort_14th = yes

discovered_by = chinese
discovered_by = steppestech

450.1.1 = {
	set_province_flag = tribals_control_province
	set_province_flag = pocket_province
}
967.1.1 = {
	owner = SNG
	controller = SNG
	add_core = SNG
}
1265.1.1 = {
	owner = YUA
	controller = YUA
	add_core = LNG
	add_core = YUA
}
1320.1.1 = {
	remove_core = SNG
}
1351.1.1 = {
	owner = ZHN
	controller = ZHN
	add_core = ZHN
}
1375.1.1 = {
	owner = MNG
	controller = MNG
	add_core = MNG
	remove_core = LNG
	remove_core = YUA
}
1460.1.1 = {
	owner = CTA
	controller = CTA
	add_core = CTA
}
1461.1.1 = {
	owner = MNG
	controller = MNG
	remove_core = CTA
}
1521.1.1 = {
	base_tax = 53
	base_production = 2
	base_manpower = 3
}
#1662.1.1 = {
#	owner = QNG
#	controller = QNG
#	add_core = QNG
#	remove_core = MNG
#} # The Qing Dynasty
1662.1.1 = {
	owner = ZOU
	controller = ZOU
	add_core = ZOU
	remove_core = MNG
}# Wu Sangui appointed as viceroy
1673.11.1 = {
	add_core = QNG
} # Wu Sangui revolt, core given to Qing for reconquering
1681.10.1 = {
	owner = QNG
	controller = QNG
	remove_core = ZOU
}
