#692 - Wenzhou

owner = YUA
controller = YUA
add_core = CMN

capital = "Yongjia"
trade_goods = tea
culture = ouyu
religion = confucianism

hre = no

base_tax = 64
base_production = 2
base_manpower = 3

is_city = yes
road_network = yes
urban_infrastructure_1 = yes
harbour_infrastructure_1 = yes

discovered_by = steppestech
discovered_by = chinese

450.1.1 = {
	set_province_flag = has_estuary
	set_province_flag = good_natural_place
	add_permanent_province_modifier = {
		name = "wenzhou_natural_harbour"
		duration = -1
	}
}
985.1.1 = {
	owner = SNG
	controller = SNG
	add_core = SNG
}
1276.1.1 = {
	owner = YUA
	controller = YUA
	add_core = YUA
}
1320.1.1 = {
	remove_core = SNG
}
1351.1.1 = {
	owner = CEN
	controller = CEN
	add_core = CEN
}
1369.3.17 = {
	owner = MNG
	controller = MNG
	add_core = MNG
	remove_core = YUA
	remove_core = CEN
	remove_core = CMN
}
1521.1.1 = {
	base_tax = 102
	base_manpower = 4
}
1645.6.25 = {
	owner = QNG
	controller = QNG
	add_core = QNG
} # The Qing Dynasty
#1662.1.1 = {
#	owner = QNG
#	controller = QNG
#	add_core = QNG
#	remove_core = MNG
#} # The Qing Dynasty
1662.1.1 = {
	remove_core = MNG
}
