country_decisions = {
	
	beylik_of_tripoli = {
		potential = {
			culture_group = turko_byzantine
			religion_group = muslim
			government = monarchy
			NOT = { exists = TRP }
			NOT = { has_country_flag = beylik_of_tripoli_indp }
			any_owned_province = {
				OR = {
					area = tripolitania_area
					area = cyrenaica_area
					area = fezzan_area
				}
			}
		}
		allow = {
			is_at_war = no
			owns = 354 # Tarabulus
		}
		effect = {
			set_country_flag = beylik_of_tripoli_indp
			add_prestige = 5
			every_owned_province = {
				limit = {
					OR = {
						area = tripolitania_area
						area = cyrenaica_area
						area = fezzan_area
					}
				}
				add_core = TRP
				remove_core = ROOT
				remove_claim = ROOT
			}
			tripolitania_area = { limit = { NOT = { owned_by = ROOT } } add_permanent_claim = TRP }
			cyrenaica_area = { limit = { NOT = { owned_by = ROOT } } add_permanent_claim = TRP }
			fezzan_area = { limit = { NOT = { owned_by = ROOT } } add_permanent_claim = TRP }
			release = TRP
			vassalize = TRP
			if = {
				limit = {
					has_dlc = "Art of War"
				}
				create_march = TRP
			}
			TRP = {
				Effect_set_capital = { target=354 }
				set_country_flag = turkish_vassal
				change_title_3 = yes
				add_manpower = 10
				capital_scope = {
					build_to_forcelimit = {
						infantry = 0.8
						cavalry = 0.2
					}
				}
				random_owned_province = {
					limit = {
						has_port = yes
					}
					build_to_forcelimit = {
						light_ship = 0.3
						transport = 0.1
						galley = 0.6
					}
				}
			}
			if = {
				limit = {
					TRP = {
						technology_group = muslim
					}
				}
				TRP = {
					change_technology_group = turkishtech
				}
			}
		}
		ai_will_do = {
			factor = 1
		}
	}
	
	expand_tripoli = {
		potential = {
			culture_group = turko_byzantine
			religion_group = muslim
			government = monarchy
			TRP = {
				is_subject_of = ROOT
			}
			any_owned_province = {
				OR = {
					area = tripolitania_area
					area = cyrenaica_area
					area = fezzan_area
					area = djado_area
					area = azbin_area
				}
			}
		}
		allow = {
			is_at_war = no
		}
		effect = {
			add_prestige = 5
			every_owned_province = {
				limit = {
					OR = {
						area = tripolitania_area
						area = cyrenaica_area
						area = fezzan_area
						area = djado_area
						area = azbin_area
					}
				}
				add_core = TRP
				remove_core = ROOT
				remove_claim = ROOT
				cede_province = TRP
			}
		}
		ai_will_do = {
			factor = 1
		}
	}
	
	#Tunis
	beylik_of_tunis = {
		potential = {
			culture_group = turko_byzantine
			religion_group = muslim
			government = monarchy
			NOT = { exists = TUN }
			NOT = { has_country_flag = beylik_of_tunis_indp }
			any_owned_province = {
				OR = {
					area = tunis_area
					area = kairwan_area
					area = djerba_area
				}
			}
		}
		allow = {
			is_at_war = no
			owns = 341 # Tunis
		}
		effect = {
			set_country_flag = beylik_of_tunis_indp
			add_prestige = 5
			every_owned_province = {
				limit = {
					OR = {
						area = tunis_area
						area = kairwan_area
						area = djerba_area
					}
				}
				add_core = TUN
				remove_core = ROOT
				remove_claim = ROOT
			}
			tunis_area = { limit = { NOT = { owned_by = ROOT } } add_permanent_claim = TUN }
			kairwan_area = { limit = { NOT = { owned_by = ROOT } } add_permanent_claim = TUN }
			djerba_area = { limit = { NOT = { owned_by = ROOT } } add_permanent_claim = TUN }
			release = TUN
			vassalize = TUN
			if = {
				limit = {
					has_dlc = "Art of War"
				}
				create_march = TUN
			}
			TUN = {
				Effect_set_capital = { target=341 }
				set_country_flag = turkish_vassal
				change_title_3 = yes
				add_manpower = 10
				capital_scope = {
					build_to_forcelimit = {
						infantry = 0.8
						cavalry = 0.2
					}
				}
				random_owned_province = {
					limit = {
						has_port = yes
					}
					build_to_forcelimit = {
						light_ship = 0.3
						transport = 0.1
						galley = 0.6
					}
				}
			}
		}
		ai_will_do = {
			factor = 1
		}
	}
	
	expand_tunis = {
		potential = {
			culture_group = turko_byzantine
			religion_group = muslim
			government = monarchy
			TUN = {
				is_subject_of = ROOT
			}
			any_owned_province = {
				OR = {
					area = tunis_area
					area = kairwan_area
					area = djerba_area
				}
			}
		}
		allow = {
			is_at_war = no
		}
		effect = {
			add_prestige = 5
			every_owned_province = {
				limit = {
					OR = {
						area = tunis_area
						area = kairwan_area
						area = djerba_area
					}
				}
				add_core = TUN
				remove_core = ROOT
				remove_claim = ROOT
				cede_province = TUN
			}
		}
		ai_will_do = {
			factor = 1
		}
	}
	
	#Algiers
	regency_of_algiers = {
		potential = {
			culture_group = turko_byzantine
			religion_group = muslim
			government = monarchy
			NOT = { exists = ALG }
			NOT = { has_country_flag = regency_of_algiers_indp }
			any_owned_province = {
				region = central_maghreb_region
			}
		}
		allow = {
			is_at_war = no
			owns = 350 # Al Djazair
		}
		effect = {
			set_country_flag = regency_of_algiers_indp
			add_prestige = 5
			every_owned_province = {
				limit = {
					region = central_maghreb_region
				}
				add_core = ALG
				remove_core = ROOT
				remove_claim = ROOT
			}
			central_maghreb_region = { limit = { NOT = { owned_by = ROOT } } add_permanent_claim = ALG }
			release = ALG
			vassalize = ALG
			if = {
				limit = {
					has_dlc = "Art of War"
				}
				create_march = ALG
			}
			ALG = {
				Effect_set_capital = { target=350 }
				set_country_flag = turkish_vassal
				change_title_3 = yes
				add_manpower = 10
				capital_scope = {
					build_to_forcelimit = {
						infantry = 0.8
						cavalry = 0.2
					}
				}
				random_owned_province = {
					limit = {
						has_port = yes
					}
					build_to_forcelimit = {
						light_ship = 0.3
						transport = 0.1
						galley = 0.6
					}
				}
			}
		}
		ai_will_do = {
			factor = 1
		}
	}
	
	expand_algiers = {
		potential = {
			culture_group = turko_byzantine
			religion_group = muslim
			government = monarchy
			ALG = {
				is_subject_of = ROOT
			}
			any_owned_province = {
				region = central_maghreb_region
			}
		}
		allow = {
			is_at_war = no
		}
		effect = {
			add_prestige = 5
			every_owned_province = {
				limit = {
					region = central_maghreb_region
				}
				add_core = ALG
				remove_core = ROOT
				remove_claim = ROOT
				cede_province = ALG
			}
		}
		ai_will_do = {
			factor = 1
		}
	}
	
	#Fez
	regency_of_fes = {
		potential = {
			culture_group = turko_byzantine
			religion_group = muslim
			government = monarchy
			NOT = { exists = FEZ }
			NOT = { has_country_flag = regency_of_fes_indp }
			any_owned_province = {
				OR = { region = west_maghreb_region region = east_maghreb_region }
			}
		}
		allow = {
			is_at_war = no
			owns = 343 # Fes
		}
		effect = {
			set_country_flag = regency_of_fes
			add_prestige = 5
			every_owned_province = {
				limit = {
					OR = { region = west_maghreb_region region = east_maghreb_region }
				}
				add_core = FEZ
				remove_core = ROOT
				remove_claim = ROOT
			}
			west_maghreb_region = { limit = { NOT = { owned_by = ROOT } } add_permanent_claim = FEZ }
			west_sahara_region = { limit = { NOT = { owned_by = ROOT } } add_permanent_claim = FEZ }
			release = FEZ
			vassalize = FEZ
			if = {
				limit = {
					has_dlc = "Art of War"
				}
				create_march = FEZ
			}
			FEZ = {
				Effect_set_capital = { target=343 }
				set_country_flag = turkish_vassal
				change_title_3 = yes
				add_manpower = 10
				capital_scope = {
					build_to_forcelimit = {
						infantry = 0.8
						cavalry = 0.2
					}
				}
				random_owned_province = {
					limit = {
						has_port = yes
					}
					build_to_forcelimit = {
						light_ship = 0.3
						transport = 0.1
						galley = 0.6
					}
				}
			}
			if = {
				limit = {
					FEZ = {
						technology_group = muslim
					}
				}
				FEZ = {
					change_technology_group = turkishtech
				}
			}
		}
		ai_will_do = {
			factor = 1
		}
	}
	
	expand_fes = {
		potential = {
			culture_group = turko_byzantine
			religion_group = muslim
			government = monarchy
			FEZ = {
				is_subject_of = ROOT
			}
			any_owned_province = {
				OR = {
					region = west_maghreb_region
					region = west_sahara_region
				}
			}
		}
		allow = {
			is_at_war = no
		}
		effect = {
			add_prestige = 5
			every_owned_province = {
				limit = {
					OR = {
						region = west_maghreb_region
						area = western_sahara_area
						area = arguin_area
					}
				}
				add_core = FEZ
				remove_core = ROOT
				remove_claim = ROOT
				cede_province = FEZ
			}
		}
		ai_will_do = {
			factor = 1
		}
	}
	
	#Mamlukes
	#annex_mamlukes = {
	#	potential = {
	#		NOT = { has_country_flag = annex_mamlukes }
	#		tag = TUR
	#		MAM = { ai = yes }
	#		war_with = MAM
	#	}
	#	allow = {
	#		361 = { controlled_by = ROOT owned_by = MAM }
	#		war_score_against = {
	#			who = MAM
	#			value = 1
	#		}
	#	}
	#	effect = {
	#		set_country_flag = annex_mamlukes
	#		white_peace = MAM
	#		inherit = MAM
	#		every_owned_province = {
	#			limit = {
	#				region = egypt_region
	#				NOT = { has_province_modifier = local_mamlukes }
	#			}
	#			add_permanent_province_modifier = {
	#				name = local_mamlukes
	#				duration = -1
	#			}
	#			remove_province_modifier = at_cultural_uprising
	#			owner = { add_legitimacy = 1 }
	#		}
	#		hidden_effect = {
	#			every_country = {
	#				every_owned_province = {
	#					limit = {
	#						region = egypt_region
	#					}
	#					add_permanent_claim = ROOT
	#				}
	#			}
	#		}
	#	}
	#	ai_will_do = {
	#		factor = 1
	#	}
	#}
	
	integrate_the_mamlukes = {
		potential = {
			OR = {
				has_country_modifier = title_5
				has_country_modifier = title_6
			}
			government = monarchy
			NOT = { primary_culture = egyptian }
			NOT = { exists = MAM }
			capital_scope = {
				NOT = { region = egypt_region }
			}
			religion_group = muslim
			any_owned_province = {
				region = egypt_region
				NOT = { has_province_modifier = local_mamlukes }
			}
		}
		allow = {
			is_at_war = no
		}
		effect = {
			every_owned_province = {
				limit = {
					region = egypt_region
					NOT = { has_province_modifier = local_mamlukes }
				}
				add_permanent_province_modifier = {
					name = local_mamlukes
					duration = -1
				}
				add_core = ROOT
				remove_province_modifier = at_cultural_uprising
				owner = { add_legitimacy = 1 }
			}
			hidden_effect = {
				every_country = {
					every_owned_province = {
						limit = {
							region = egypt_region
						}
						add_permanent_claim = ROOT
					}
				}
			}
		}
		ai_will_do = {
			factor = 1
		}
		ai_importance = 100
	}
}
