########################################
# Korea
########################################
#hungu_korea =
#{
#	monarch_power = MIL
#	always = yes
#	
#	modifier = 
#	{
#		land_forcelimit_modifier = 0.25
#		global_tax_modifier = -0.25
#		global_trade_power = -0.25
#	}
#}
#
#sarim_korea =
#{
#	monarch_power = ADM
#	always = yes
#
#	modifier = 
#	{
#		stability_cost_modifier = -0.1
#		prestige_decay = -0.05
#	}
#}
