# HAN - Hannover

government = feudal_monarchy government_rank = 1
mercantilism = 0.0
primary_culture = old_saxon
religion = catholic
technology_group = western
capital = 61

1000.1.1 = {
	add_country_modifier = { name = title_3 duration = -1 }
	set_country_flag = title_3
	#set_variable = { which = "centralization_decentralization" value = 4 }
	add_absolutism = -100
	add_absolutism = 10
	set_country_flag = welf_succession
}

1432.1.1 = {
	monarch = {
		name = "Wilhelm"
		dynasty = "von Welf"
		DIP = 3
		ADM = 3
		MIL = 3
	}
	heir = {
		name = "Wilhelm"
		monarch_name = "Wilhelm II"
		dynasty = "von Welf"
		birth_date = 1425.1.1
		death_date = 1503.7.7
		claim = 95
		ADM = 3
		DIP = 3
		MIL = 3
	}
}

1473.1.1 = {
	monarch = {
		name = "Wilhelm II"
		dynasty = "von Welf"
		DIP = 3
		ADM = 3
		MIL = 3
	}
} #Transfered rule from Wilhelm to his son, Wilhelm goes to Braunschweig

#1482 PU with Braunschweig

1494.1.1 = {
	monarch = {
		name = "Erich I"
		dynasty = "von Welf"
		DIP = 3
		ADM = 3
		MIL = 3
	}
} #Erbteilung, Calenberg-Göttingen founded

1529.1.1  = {
	religion = protestant
}

1530.1.2 = {
	government = administrative_monarchy
	heir = {
		name = "Erich"
		monarch_name = "Erich II"
		dynasty = "von Welf"
		birth_date = 1528.8.10
		death_date = 1584.11.17
		claim = 95
		ADM = 2
		DIP = 2
		MIL = 4
	}
	capital = 61 # Calenberg (was Hannover)
}

1545.1.1 = {
	monarch = {
		name = "Erich II"
		dynasty = "von Welf"
		DIP = 2
		ADM = 2
		MIL = 4
	}
}

1584.6.11 = {
	monarch = {
		name = "Julius"
		dynasty = "von Welf"
		DIP = 3
		ADM = 3
		MIL = 3
	}
	heir = {
		name = "Heinrich Julius"
		monarch_name = "Heinrich Julius"
		dynasty = "von Welf"
		birth_date = 1564.10.15
		death_date = 1613.7.20
		claim = 95
		ADM = 3
		DIP = 3
		MIL = 3
	}
	religion = protestant
} #PU with Braunschweig

1589.5.13 = {
	monarch = {
		name = "Heinrich Julius"
		dynasty = "von Welf"
		DIP = 3
		ADM = 3
		MIL = 3
	}
} #Still PU with Braunschweig

1591.4.15 = {
	heir = {
		name = "Friedrich Ulrich"
		monarch_name = "Friedrich Ulrich"
		dynasty = "von Welf"
		birth_date = 1591.4.15
		death_date = 1634.8.21
		claim = 95
		ADM = 3
		DIP = 3
		MIL = 3
	}
}

1613.7.20 = {
	monarch = {
		name = "Friedrich Ulrich"
		dynasty = "von Welf"
		DIP = 3
		ADM = 3
		MIL = 3
	}
} #Still PU with Braunschweig

1634.8.11 = {
	monarch = {
		name = "Georg"
		dynasty = "von Welf"
		DIP = 2
		ADM = 3
		MIL = 4
	}
} #PU broken

#1641.4.2 = {
#	monarch = {
#		name = "Christian Ludwig"
#		dynasty = "von Welf"
#		DIP = 3
#		ADM = 2
#		MIL = 3
#	}
#}
#
#1648.1.1 = {
#	monarch = {
#		name = "Georg Wilhelm"
#		dynasty = "von Welf"
#		DIP = 3
#		ADM = 3
#		MIL = 3
#	}
#}
#
#1665.1.1 = {
#	monarch = {
#		name = "Johann Friedrich"
#		dynasty = "von Welf"
#		DIP = 3
#		ADM = 3
#		MIL = 3
#	}
#}
#
#1679.12.28 = {
#	monarch = {
#		name = "Ernst August"
#		dynasty = "von Welf"
#		DIP = 3
#		ADM = 3
#		MIL = 3
#	}
#}
#

#Dukes of Braunschweig-Kalenberg
1636.1.1 = {
	monarch = {
		name = "Georg"
		dynasty = "von Welf"
		DIP = 3
		ADM = 3
		MIL = 3
	}
	heir = {
		name = "Christian Ludwig"
		monarch_name = "Christian Ludwig"
		dynasty = "von Welf"
		birth_date = 1622.2.25
		death_date = 1665.3.15
		claim = 95
		ADM = 1
		DIP = 2
		MIL = 5
	}
	set_country_flag = welf_succession
}

1641.4.12 = {
	monarch = {
		name = "Christian Ludwig"
		dynasty = "von Welf"
		DIP = 2
		ADM = 1
		MIL = 5
	}
	heir = {
		name = "Georg Wilhelm"
		monarch_name = "Georg II Wilhelm"
		dynasty = "von Welf"
		birth_date = 1624.1.26
		death_date = 1705.8.28
		claim = 95
		ADM = 3
		DIP = 5
		MIL = 4
	}
}

1648.12.10 = {
	monarch = {
		name = "Georg II Wilhelm"
		dynasty = "von Welf"
		DIP = 5
		ADM = 3
		MIL = 4
	}
	heir = {
		name = "Johann Friedrich"
		monarch_name = "Johann Friedrich"
		dynasty = "von Welf"
		birth_date = 1625.4.25
		death_date = 1679.12.18
		claim = 95
		ADM = 5
		DIP = 6
		MIL = 4
	}
}

1665.12.10 = {
	monarch = {
		name = "Johann Friedrich"
		dynasty = "von Welf"
		DIP = 6
		ADM = 5
		MIL = 4
	}
	heir = {
		name = "Ernst August"
		monarch_name = "Ernst August"
		dynasty = "von Welf"
		birth_date = 1629.11.20
		death_date = 1698.1.23
		claim = 95
		ADM = 4
		DIP = 5
		MIL = 4
	}
}

#Electors of Hannover (from 1698), also Kings of England (from 1714)

1679.12.28 = {
	monarch = {
		name = "Ernst August"
		dynasty = "von Welf"
		DIP = 5
		ADM = 4
		MIL = 4
	}
	heir = {
		name = "Georg Ludwig"
		monarch_name = "Georg Ludwig"
		dynasty = "von Welf"
		birth_date = 1660.5.28
		death_date = 1727.6.11
		claim = 95
		ADM = 4
		DIP = 4
		MIL = 6
	}
}

1692.1.1 = { elector = yes }

1698.1.23 = {
	monarch = {
		name = "Georg Ludwig"
		dynasty = "von Welf"
		DIP = 4
		ADM = 4
		MIL = 6
	}
}

1727.6.11 = {
	monarch = {
		name = "Georg II"
		dynasty = "von Welf"
		DIP = 5
		ADM = 4
		MIL = 5
	}
}

1760.10.25 = {
	monarch = {
		name = "Georg III"
		dynasty = "von Welf"
		DIP = 2
		ADM = 2
		MIL = 5
	}
}

1806.7.12 = { elector = no } # The HRE is formally abolished
