# No previous file for Strassburg

government = theocratic_government government_rank = 1
mercantilism = 0.0
technology_group = western
primary_culture = rhine_alemanisch
religion = catholic
capital = 75

1000.1.1 = {
	add_country_modifier = { name = title_3 duration = -1 }
	set_country_flag = title_3
	#set_variable = { which = "centralization_decentralization" value = 4 }
	add_absolutism = -100
	add_absolutism = 10
}

1328.11.6 = {
	monarch = {
		name = "Berthold II von Buchegg"
		ADM = 2
		DIP = 2
		MIL = 1
	}
}

1353.11.25 = {
	monarch = {
		name = "Johann II von Lichtenberg"
		birth_date = 1300.1.1
		ADM = 3
		DIP = 3
		MIL = 3
	}
}

1356.1.1 = {
	#set_variable = { which = "centralization_decentralization" value = -2 }
	add_absolutism = -100
	add_absolutism = 50
}

1366.9.14 = {
	monarch = {
		name = "Johann III von Luxemburg-Ligny"
		ADM = 5
		DIP = 4
		MIL = 2
	}
}

1371.4.4 = {
	monarch = {
		name = "Lamprecht von Brunn"
		ADM = 1
		DIP = 2
		MIL = 1
	}
}

1375.4.20 = {
	monarch = {
		name = "Friedrich II von Blankenheim"
		ADM = 4
		DIP = 5
		MIL = 2
	}
}

1393.6.1 = {
	monarch = {
		name = "Ludwig von Thierstein"
		ADM = 4
		DIP = 4
		MIL = 3
	}
}

1393.9.1 = {
	monarch = {
		name = "Burkhard II von Lützelstein"
		ADM = 2
		DIP = 2
		MIL = 3
	}
}

1394.1.1 = {
	monarch = {
		name = "Wilhelm II von Diest"
		ADM = 3
		DIP = 2
		MIL = 3
	}
}

1439.1.1 = {
	monarch = {
		name = "Konrad IV von Busnang"
		ADM = 4
		DIP = 2
		MIL = 2
	}
}

1440.11.11 = {
	monarch = {
		name = "Ruprecht I von Wittelsbach"
		ADM = 3
		DIP = 2
		MIL = 3
	}
}

1478.10.18 = {
	monarch = {
		name = "Albrecht I von Wittelsbach"
		ADM = 2
		DIP = 3
		MIL = 2
	}
}

1506.9.20 = {
	monarch = {
		name = "Wilhelm III von Hohnstein"
		ADM = 4
		DIP = 4
		MIL = 3
	}
}

1524.1.1 = { set_country_flag = peasant_war }

1526.1.1 = { clr_country_flag = peasant_war }

1541.6.29 = {
	monarch = {
		name = "Erasmus Schenk von Limpurg"
		birth_date = 1507.8.7
		ADM = 2
		DIP = 2
		MIL = 5
	}
}

1568.11.27 = {
	monarch = {
		name = "Johann IV von Manderscheid-Blankenheim"
		ADM = 4
		DIP = 1
		MIL = 4
	}
}

1592.5.2 = {
	religion = protestant
	government = constitutional_monarchy
	remove_country_modifier = title_3
	add_country_modifier = { name = title_6 duration = -1 }
}#Calvinist reformer Martin Bucer

1592.5.2 = {
	monarch = {
		name = "Johann Georg von Hohenzollern"
		ADM = 1
		DIP = 2
		MIL = 2
	}
}

1593.2.27 = {
	religion = catholic
	# secularism_theocracy = 0
}

1593.2.27 = {
	monarch = {
		name = "Karl I de Metz"
		ADM = 3
		DIP = 3
		MIL = 3
	}
}

1607.11.24 = {
	monarch = {
		name = "Leopold von Habsburg"
		ADM = 2
		DIP = 4
		MIL = 2
	}
}

1626.2.1 = {
}# Leopold Wilhelm von Habsburg

1626.2.1 = {
	monarch = {
		name = "Leopold Wilhelm von Habsburg"
		ADM = 3
		DIP = 2
		MIL = 3
	}
}

1662.11.20 = {
	monarch = {
		name = "Franz Egon von Urach"
		ADM = 5
		DIP = 2
		MIL = 2
	}
}

1704.4.1 = {
	# innovative_narrowminded = -3
}#Armand Gastón de Rohan, le Grand Cardinal
