# ZUN - Zunghar

government = tribal_nomads_steppe government_rank = 1
primary_culture = oirats
religion = vajrayana
technology_group = steppestech
capital = 718	# Kobdo

1000.1.1 = {
	add_country_modifier = { name = title_5 duration = -1 }
	set_country_flag = title_5
	#set_variable = { which = "centralization_decentralization" value = 5 }
	add_absolutism = -100
	add_absolutism = 0
}

1634.1.1 = {
	monarch = {
		name = "Erdeni Batur"
		dynasty = "Choros"
		adm = 2
		dip = 2
		mil = 3
	}
}

1634.1.1 = {
	heir = {
		name = "Sengge"
		monarch_name = "Sengge"
		dynasty = "Choros"
		birth_date = 1630.1.1
		death_date = 1671.1.1
		claim = 95
		adm = 2
		dip = 2
		mil = 3
	}
}

1653.1.1 = {
	monarch = {
		name = "Sengge"
		dynasty = "Choros"
		adm = 2
		dip = 2
		mil = 3
	}
}

1653.1.1 = {
	heir = {
		name = "Galdan Bashigt"
		monarch_name = "Galdan Bashigt"
		dynasty = "Choros"
		birth_date = 1644.1.1
		death_date = 1698.9.4
		claim = 95
		adm = 3
		dip = 3
		mil = 3
	}
}

1671.1.1 = {
	monarch = {
		name = "Galdan Bashigt"
		dynasty = "Choros"
		adm = 3
		dip = 3
		mil = 3
	}
}

1680.1.1 = {
	heir = {
		name = "Tsewang Rabdan"
		monarch_name = "Tsewang Rabdan"
		dynasty = "Choros"
		birth_date = 1680.1.1
		death_date = 1727.12.1
		claim = 95
		adm = 2
		dip = 2
		mil = 2
	}
}

1698.9.4 = {
	monarch = {
		name = "Tsewang Rabdan"
		dynasty = "Choros"
		adm = 2
		dip = 2
		mil = 2
	}
}

1698.9.4 = {
	heir = {
		name = "Galdan Tseren"
		monarch_name = "Galdan Tseren"
		dynasty = "Choros"
		birth_date = 1690.1.1
		death_date = 1745.8.1
		claim = 95
		adm = 2
		dip = 2
		mil = 2
	}
}

1727.12.1 = {
	monarch = {
		name = "Galdan Tseren"
		dynasty = "Choros"
		adm = 2
		dip = 2
		mil = 2
	}
}

1727.12.1 = {
	heir = {
		name = "Lama Darja"
		monarch_name = "Lama Darja"
		dynasty = "Choros"
		birth_date = 1700.1.1
		death_date = 1750.1.1
		claim = 95
		adm = 2
		dip = 2
		mil = 2
	}
}

1745.8.1 = {
	monarch = {
		name = "Lama Darja"
		dynasty = "Choros"
		adm = 2
		dip = 2
		mil = 2
	}
}

1745.8.1 = {
	heir = {
		name = "Dawaji"
		monarch_name = "Dawaji"
		dynasty = "Choros"
		birth_date = 1700.1.1
		death_date = 1755.10.1
		claim = 95
		adm = 2
		dip = 2
		mil = 2
	}
}

1750.1.1 = {
	monarch = {
		name = "Dawaji"
		dynasty = "Choros"
		adm = 2
		dip = 2
		mil = 2
	}
}

1750.1.1 = {
	heir = {
		name = "Amursana"
		monarch_name = "Amursana"
		dynasty  = "Choros"
		birth_date = 1750.1.1
		death_date = 1756.3.1
		claim = 95
		adm = 2
		dip = 2
		mil = 2
	}
}

1755.10.1 = {
	monarch = {
		name = "Amursana"
		dynasty = "Choros"
		adm = 2
		dip = 2
		mil = 2
	}
}

#Annexed by Qing in March 1756
