# cost = CFixedPoint( base_cost + ( level * level * level_cost ) ).GetTruncated()
# DEFAULT: base_cost = 0, level_cost = 0.4, max_level = 4

new_idea_adm_modifiers = {
	category = ADM
	custom_idea_female_advisor_chance = {
		female_advisor_chance = 0.1
		max_level = 10
		level_cost_1 = 0
		level_cost_2 = 0
		level_cost_3 = 0
		level_cost_4 = 0
		level_cost_5 = 0
		level_cost_6 = 0
		level_cost_7 = 0
		level_cost_8 = 0
		level_cost_9 = 0
		level_cost_10 = 0
	}
}

new_idea_mil_modifiers = {
	category = MIL
	custom_idea_female_generals = {
		may_recruit_female_generals = yes
		max_level = 1
		level_cost_1 = 5
	}
}